Event,Layer,Quadrant,X,Y,ToF,Energy,Col,Row,ToT,ToH,Twait
2,1,1,-7.7034,-4.6689,28.972,0.4631,13,96,2,53.972,53.972
3,1,1,-7.7497,-1.9662,27.0641,0.6535,13,146,2,77.0641,23.0921
4,1,1,-9.5417,-3.1987,28.0473,0.3031,2,123,2,103.0473,25.9832
5,1,1,-8.2737,5.6017,30.1828,0.6514,10,283,2,130.1828,27.1355
8,1,1,-8.4612,-7.9678,27.5947,1.6772,9,36,2,202.5947,72.4119
8,1,1,-5.5876,-1.9905,29.2544,1.4779,26,145,2,204.2544,1.6597
9,1,1,-8.8633,-5.7255,27.0978,0.4314,6,77,2,227.0978,22.8434
25,1,1,-6.8197,-5.3769,27.5136,1.1993,19,84,2,627.5136,400.4158
26,1,1,-5.878,0.0695,26.8976,0.513,24,183,2,651.8976,24.384
28,1,1,-6.5878,-5.3944,27.1376,1.0001,20,83,2,702.1376,50.24
28,1,1,-8.9534,-7.5611,30.8065,0.2923,6,44,2,705.8065,3.6689
30,1,1,-8.5234,-9.8099,27.1209,1.4964,8,3,2,752.1209,46.3144
44,1,1,-8.7705,-3.9374,29.5748,1.9907,7,110,2,1104.5748,352.4539
46,1,1,-6.3082,-0.2079,30.1476,1.4071,22,178,2,1155.1476,50.5728
47,1,1,-7.1675,-8.1346,27.3272,1.3854,17,33,2,1177.3272,22.1796
47,1,1,-7.4424,7.4387,27.9295,1.9009,15,317,2,1177.9295,0.6023
49,1,1,-8.9638,2.9692,26.614,1.9847,6,235,2,1226.614,48.6845
52,1,1,-7.6387,2.7481,27.584,1.8939,14,231,2,1302.584,75.97
54,1,1,-5.4669,-4.5609,27.3573,0.6647,27,98,2,1352.3573,49.7733
55,1,1,-7.8138,-8.011,28.8312,0.9855,13,36,2,1378.8312,26.4739
57,1,1,-7.8573,-6.4651,28.5305,0.4921,12,64,2,1428.5305,49.6993
70,1,1,-9.2674,-6.1205,29.847,0.4544,4,70,2,1754.847,326.3165
73,1,1,-7.9124,6.0675,27.2387,1.1412,12,292,2,1827.2387,72.3917
91,1,1,-6.3036,-6.9639,26.9099,0.2493,22,55,2,2276.9099,449.6712
93,1,1,-8.0443,-6.5488,27.281,1.7509,11,62,2,2327.281,50.3711
97,1,1,-6.8413,2.2657,29.0422,0.1704,19,223,2,2429.0422,101.7612
97,1,1,-6.3115,-3.1022,29.4499,0.6137,22,125,2,2429.4499,0.4077
102,1,1,-7.2955,3.0488,27.0915,1.0725,16,237,2,2552.0915,122.6416
103,1,1,-8.542,6.4024,26.4318,0.278,8,298,2,2576.4318,24.3403
105,1,1,-8.7609,-5.7026,29.8626,0.769,7,78,2,2629.8626,53.4308
107,1,1,-7.366,-3.5527,29.7944,0.5961,15,117,2,2679.7944,49.9318
108,1,1,-8.5779,3.0755,27.8042,0.7995,8,237,2,2702.8042,23.0098
112,1,1,-5.9383,2.0647,26.7601,1.593,24,219,2,2801.7601,98.9559
112,1,1,-6.5245,-5.389,29.935,1.93,21,83,2,2804.935,3.1749
118,1,1,-8.2043,2.318,27.2706,0.2614,10,223,2,2952.2706,147.3356
123,1,1,-8.0852,-3.0044,27.5553,0.255,11,127,2,3077.5553,125.2847
124,1,1,-8.0142,1.4967,28.5498,0.2055,12,209,2,3103.5498,25.9945
124,1,1,-8.5948,-6.8315,30.8767,1.6432,8,57,2,3105.8767,2.3269
125,1,1,-9.0121,-0.8626,29.0726,1.3881,5,166,2,3129.0726,23.1959
128,1,1,-6.0359,-7.7114,29.0161,1.6434,24,41,2,3204.0161,74.9435
129,1,1,-6.0949,0.6805,27.0416,1.4025,23,194,2,3227.0416,23.0255
131,1,1,-5.631,2.5744,26.2141,0.3352,26,228,2,3276.2141,49.1725
135,1,1,-6.6299,-1.0956,26.2079,1.8946,20,161,2,3376.2079,99.9938
135,1,1,-5.9837,-4.0995,26.7156,0.4702,24,107,2,3376.7156,0.5077
140,1,1,-9.2827,-6.3194,27.4094,1.6701,4,66,2,3502.4094,125.6938
146,1,1,-7.1054,-1.4889,28.3765,1.1343,17,154,2,3653.3765,150.9671
155,1,1,-5.4991,6.0594,28.7933,1.2069,27,291,2,3878.7933,225.4168
158,1,1,-8.8776,-2.3562,26.4839,1.7326,6,138,2,3951.4839,72.6906
161,1,1,-9.5299,6.0602,26.6133,0.6928,2,292,2,4026.6133,75.1294
164,1,1,-7.9694,3.005,26.3814,1.2478,12,236,2,4101.3814,74.7681
165,1,1,-8.1891,-4.5143,29.2115,0.3151,10,99,2,4129.2115,27.8301
171,1,1,-7.6923,4.6214,29.8187,0.5589,13,265,2,4279.8187,150.6072
173,1,1,-8.8598,-9.8233,28.9623,0.5148,6,3,2,4328.9623,49.1436
177,1,1,-6.876,2.2745,28.0693,1.0284,18,223,2,4428.0693,99.107
180,1,1,-5.4397,-1.4591,30.8369,0.9235,27,155,2,4505.8369,77.7676
183,1,1,-6.5687,5.1386,27.3764,1.876,20,275,2,4577.3764,71.5395
186,1,1,-6.4359,-3.5257,29.9807,0.5739,21,117,2,4654.9807,77.6043
189,1,1,-6.1823,2.0718,30.2174,0.5004,23,219,2,4730.2174,75.2367
190,1,1,-8.0867,3.9187,28.1036,1.7355,11,253,2,4753.1036,22.8862
195,1,1,-5.5267,3.4955,27.6946,0.4909,27,245,2,4877.6946,124.591
197,1,1,-9.2812,4.2815,28.6556,0.8812,4,259,2,4928.6556,50.961
200,1,1,-5.9934,-1.0287,29.2325,1.4956,24,163,2,5004.2325,75.5769
204,1,1,-6.3483,3.3928,27.2953,0.3772,22,243,2,5102.2953,98.0628
207,1,1,-8.8321,1.4252,30.7768,1.2873,7,207,2,5180.7768,78.4815
208,1,1,-7.9519,5.209,28.3225,1.8986,12,276,2,5203.3225,22.5457
214,1,1,-7.0389,-8.4291,27.6319,0.3433,17,28,2,5352.6319,149.3094
224,1,1,-8.1602,-1.5368,29.341,0.6598,11,153,2,5604.341,251.7091
230,1,1,-5.2784,-6.2171,26.6471,0.4414,28,68,2,5751.6471,147.3061
230,1,1,-7.7466,-0.873,27.8345,0.5484,13,165,2,5752.8345,1.1874
232,1,1,-9.1276,2.3414,26.7324,1.5163,5,224,2,5801.7324,48.8979
233,1,1,-9.4778,5.9045,26.7716,0.2937,3,289,2,5826.7716,25.0392
235,1,1,-6.8745,-6.6804,30.3025,0.7433,18,60,2,5880.3025,53.5309
236,1,1,-7.299,6.3063,28.3586,1.6846,16,296,2,5903.3586,23.0561
236,1,1,-6.5,-9.1413,28.6943,0.6312,21,15,2,5903.6943,0.3357
238,1,1,-9.575,-0.8369,28.0679,0.7459,2,166,2,5953.0679,49.3736
245,1,1,-6.9667,-2.553,29.3579,1.1316,18,135,2,6129.3579,176.29
248,1,1,-7.1323,3.4149,27.6197,0.2437,17,243,2,6202.6197,73.2618
252,1,1,-8.941,0.9429,27.3097,0.7955,6,198,2,6302.3097,99.69
254,1,1,-9.3034,1.3285,28.8139,0.1848,4,205,2,6353.8139,51.5042
257,1,1,-9.3605,5.2972,30.3134,1.4589,3,278,2,6430.3134,76.4995
259,1,1,-8.7102,6.607,26.0019,0.5965,7,301,2,6476.0019,45.6885
259,1,1,-6.5565,-2.4465,30.0307,1.1481,20,137,2,6480.0307,4.0288
263,1,1,-9.4608,1.6729,29.3766,1.2162,3,212,2,6579.3766,99.3459
266,1,1,-5.814,6.1515,26.0291,0.6993,25,293,2,6651.0291,71.6525
266,1,1,-8.7675,-4.9145,28.9609,1.1037,7,92,2,6653.9609,2.9318
266,1,1,-9.1243,-0.8256,29.3067,1.3792,5,166,2,6654.3067,0.3458
268,1,1,-7.2161,4.8739,28.8811,0.7431,16,270,2,6703.8811,49.5744
273,1,1,-5.9138,-7.012,26.8196,1.9981,24,54,2,6826.8196,122.9385
274,1,1,-7.1673,2.7535,26.254,1.9922,17,231,2,6851.254,24.4344
274,1,1,-5.6197,-2.0978,26.9447,0.4792,26,143,2,6851.9447,0.6907
274,1,1,-7.6571,-6.3239,30.3295,1.2806,14,66,2,6855.3295,3.3848
275,1,1,-7.2345,5.4839,28.2709,1.7543,16,281,2,6878.2709,22.9414
284,1,1,-9.5959,3.5871,28.7559,1.1151,2,247,2,7103.7559,225.485
285,1,1,-8.3823,-4.186,29.5771,1.2246,9,105,2,7129.5771,25.8212
286,1,1,-8.7536,-7.2665,27.6546,0.5911,7,49,2,7152.6546,23.0775
287,1,1,-9.0256,-3.0103,30.8539,1.6151,5,127,2,7180.8539,28.1993
288,1,1,-6.0997,2.1491,29.491,0.8021,23,220,2,7204.491,23.6371
289,1,1,-8.6638,-9.2666,26.8748,0.5447,8,13,2,7226.8748,22.3838
290,1,1,-7.27,3.31,27.5505,1.1923,16,242,2,7252.5505,25.6757
291,1,1,-9.3059,-5.1892,30.1269,0.7918,4,87,2,7280.1269,27.5764
292,1,1,-7.8762,4.2815,30.7746,0.2053,12,259,2,7305.7746,25.6477
297,1,1,-9.1589,1.3526,28.1725,0.7482,5,206,2,7428.1725,122.3979
299,1,1,-9.0426,2.7905,30.3697,0.2548,5,232,2,7480.3697,52.1972
301,1,1,-7.0812,4.2098,27.2721,1.5938,17,258,2,7527.2721,46.9024
316,1,1,-7.1346,-1.2413,29.7693,1.3716,17,159,2,7904.7693,377.4972
318,1,1,-9.2312,-4.0687,26.993,1.1521,4,107,2,7951.993,47.2237
318,1,1,-7.9322,-5.2003,30.475,0.926,12,87,2,7955.475,3.482
319,1,1,-8.4209,-1.398,26.2371,0.3856,9,156,2,7976.2371,20.7621
323,1,1,-5.6091,3.2547,30.3993,0.5164,26,240,2,8080.3993,104.1622
325,1,1,-9.5627,-3.6918,28.6816,1.7327,2,114,2,8128.6816,48.2823
328,1,1,-8.755,2.6514,27.8418,0.9331,7,230,2,8202.8418,74.1602
328,1,1,-8.234,1.3618,29.3272,1.9554,10,206,2,8204.3272,1.4854
329,1,1,-8.4348,0.1459,27.777,1.4548,9,184,2,8227.777,23.4498
329,1,1,-8.3456,-4.6113,30.7188,0.456,10,97,2,8230.7188,2.9418
331,1,1,-6.6475,-7.8468,28.4119,1.4051,20,39,2,8278.4119,47.6931
331,1,1,-9.0815,4.9292,30.7119,1.7062,5,271,2,8280.7119,2.3
332,1,1,-8.3842,-3.4888,30.5314,0.7879,9,118,2,8305.5314,24.8195
338,1,1,-8.5769,-4.7035,26.9821,1.7776,8,96,2,8451.9821,146.4507
340,1,1,-6.9654,5.7392,28.36,0.5403,18,286,2,8503.36,51.3779
341,1,1,-6.2208,-0.8779,29.8893,0.7787,22,165,2,8529.8893,26.5293
343,1,1,-5.307,5.3336,29.7614,0.4021,28,278,2,8579.7614,49.8721
344,1,1,-8.8378,-5.2068,27.2218,1.3334,7,87,2,8602.2218,22.4604
348,1,1,-5.7568,2.7287,28.6944,1.5358,25,231,2,8703.6944,101.4726
356,1,1,-7.3804,6.1227,27.6468,1.4011,15,293,2,8902.6468,198.9524
363,1,1,-8.9127,5.1774,27.2822,1.9415,6,275,2,9077.2822,174.6354
365,1,1,-6.7662,-1.6524,28.6584,0.2974,19,151,2,9128.6584,51.3762
365,1,1,-7.354,1.9419,29.0313,1.204,16,217,2,9129.0313,0.3729
365,1,1,-7.3609,6.6065,30.0164,1.727,15,301,2,9130.0164,0.9851
366,1,1,-9.0865,6.3392,30.9849,1.0898,5,297,2,9155.9849,25.9685
370,1,1,-9.4568,-9.5083,30.7707,1.7112,3,8,2,9255.7707,99.7858
375,1,1,-7.4473,-0.9515,27.5362,0.9783,15,164,2,9377.5362,121.7655
378,1,1,-6.6258,-3.2695,30.3784,1.6058,20,122,2,9455.3784,77.8422
385,1,1,-9.0823,-7.6047,29.4654,0.639,5,43,2,9629.4654,174.087
389,1,1,-8.9717,0.8399,27.9958,1.7037,6,197,2,9727.9958,98.5304
392,1,1,-9.2971,-6.8553,29.9795,0.7791,4,57,2,9804.9795,76.9837
397,1,1,-8.7723,6.1374,26.9442,0.2426,7,293,2,9926.9442,121.9647
397,1,1,-8.636,-0.0615,28.3323,1.1365,8,180,2,9928.3323,1.3881
401,1,1,-8.5787,-0.8817,28.1801,0.985,8,165,2,10028.1801,99.8478
404,1,1,-5.7033,5.9987,30.1731,1.596,26,290,2,10105.1731,76.993
407,1,1,-9.4376,4.4588,26.6008,0.1143,3,262,2,10176.6008,71.4277
413,1,1,-7.2449,0.3203,27.333,1.9424,16,187,2,10327.333,150.7322
414,1,1,-5.5104,-4.4154,29.8051,1.7097,27,101,2,10354.8051,27.4721
416,1,1,-5.2819,-5.3178,27.9792,1.5061,28,85,2,10402.9792,48.1741
427,1,1,-6.1537,-8.6187,27.4227,1.2953,23,25,2,10677.4227,274.4435
427,1,1,-6.023,-2.7812,28.5315,1.1002,24,131,2,10678.5315,1.1088
433,1,1,-5.6636,0.8705,30.2429,0.1575,26,197,2,10830.2429,151.7114
438,1,1,-6.4261,0.8194,26.1316,1.9317,21,196,2,10951.1316,120.8887
439,1,1,-8.3617,6.6128,26.067,1.018,9,302,2,10976.067,24.9354
441,1,1,-9.5883,1.9446,27.7588,1.3744,2,217,2,11027.7588,51.6918
441,1,1,-8.4637,-6.563,29.1921,0.937,9,62,2,11029.1921,1.4333
446,1,1,-5.3462,-9.5356,28.3157,1.341,28,8,2,11153.3157,124.1236
452,1,1,-8.498,-0.7578,28.3044,1.3373,9,168,2,11303.3044,149.9887
455,1,1,-7.001,-5.2692,26.8426,1.8455,18,86,2,11376.8426,73.5382
455,1,1,-6.0418,6.6308,28.6412,0.3129,23,302,2,11378.6412,1.7986
460,1,1,-8.2767,-1.806,30.0647,1.5843,10,148,2,11505.0647,126.4235
463,1,1,-9.0927,-6.7463,27.9066,1.3205,5,59,2,11577.9066,72.8419
467,1,1,-8.0297,-5.7526,26.7772,0.5109,11,77,2,11676.7772,98.8706
471,1,1,-5.2241,-8.9273,27.293,1.7722,28,19,2,11777.293,100.5158
474,1,1,-8.6373,5.658,30.8424,0.7013,8,284,2,11855.8424,78.5494
476,1,1,-9.3999,-7.5385,29.7875,1.9792,3,44,2,11904.7875,48.9451
479,1,1,-7.8461,-3.8347,26.0503,1.8467,13,112,2,11976.0503,71.2628
486,1,1,-8.4686,-8.7576,27.4508,0.1931,9,22,2,12152.4508,176.4005
488,1,1,-9.4864,6.5537,30.2348,0.864,3,300,2,12205.2348,52.784
489,1,1,-9.0242,-3.4389,29.0217,1.0861,5,119,2,12229.0217,23.7869
494,1,1,-7.8357,-5.1717,30.4456,0.4764,13,87,2,12355.4456,126.4239
500,1,1,-5.3263,6.1029,26.0247,1.3215,28,292,2,12501.0247,145.5791
501,1,1,-7.451,4.0941,28.3596,1.7167,15,256,2,12528.3596,27.3349
502,1,1,-7.9983,3.4833,30.3328,0.9865,12,245,2,12555.3328,26.9732
503,1,1,-9.3003,7.4364,30.3437,0.2759,4,317,2,12580.3437,25.0109
505,1,1,-6.7322,-7.7565,29.7186,1.5631,19,40,2,12629.7186,49.3749
507,1,1,-8.4104,-5.1184,28.9686,0.2382,9,88,2,12678.9686,49.25
513,1,1,-8.7976,-4.7028,27.629,0.7459,7,96,2,12827.629,148.6604
518,1,1,-7.9421,7.1527,29.1385,1.2517,12,311,2,12954.1385,126.5095
520,1,1,-5.7993,0.3255,28.6004,0.5207,25,187,2,13003.6004,49.4619
521,1,1,-6.2083,-8.0363,28.3537,0.3056,22,35,2,13028.3537,24.7533
522,1,1,-7.7887,2.8501,30.0966,1.2923,13,233,2,13055.0966,26.7429
524,1,1,-6.2492,-3.2152,28.5198,1.5296,22,123,2,13103.5198,48.4232
525,1,1,-5.7325,6.2448,26.9083,1.5113,25,295,2,13126.9083,23.3885
526,1,1,-5.7543,-9.615,30.2464,0.5262,25,6,2,13155.2464,28.3381
528,1,1,-9.4644,0.2047,29.3151,1.509,3,185,2,13204.3151,49.0687
533,1,1,-6.8151,4.0946,28.1883,1.8067,19,256,2,13328.1883,123.8732
539,1,1,-8.3563,-9.3822,26.9862,1.383,9,11,2,13476.9862,148.7979
545,1,1,-9.3398,-6.875,28.0601,1.3532,4,56,2,13628.0601,151.0739
545,1,1,-5.302,-1.2764,29.0525,1.2861,28,158,2,13629.0525,0.9924
550,1,1,-6.9528,0.2285,27.1512,1.7858,18,185,2,13752.1512,123.0987
555,1,1,-5.4316,-1.8255,30.5342,1.7397,27,148,2,13880.5342,128.383
565,1,1,-5.8951,1.8489,28.6306,0.4091,24,215,2,14128.6306,248.0964
568,1,1,-5.988,6.8658,26.7602,0.3123,24,306,2,14201.7602,73.1296
572,1,1,-5.8475,5.3793,26.6456,1.7537,25,279,2,14301.6456,99.8854
578,1,1,-7.1285,3.514,27.5771,1.2295,17,245,2,14452.5771,150.9315
583,1,1,-5.4074,0.8037,26.6529,1.1497,27,196,2,14576.6529,124.0758
584,1,1,-6.1543,-3.6173,28.7002,1.6839,23,116,2,14603.7002,27.0473
587,1,1,-9.069,7.3303,29.4841,0.3226,5,315,2,14679.4841,75.7839
592,1,1,-9.3205,4.4315,26.4402,0.6206,4,262,2,14801.4402,121.9561
592,1,1,-8.0429,-3.4948,26.6592,1.1997,11,118,2,14801.6592,0.219
595,1,1,-8.2243,-8.0167,26.8789,0.953,10,36,2,14876.8789,75.2197
595,1,1,-7.2424,0.4241,28.4024,0.8572,16,189,2,14878.4024,1.5235
595,1,1,-5.8874,-2.9684,28.9986,0.793,24,127,2,14878.9986,0.5962
600,1,1,-7.7241,0.7424,26.3927,1.4599,13,195,2,15001.3927,122.3941
601,1,1,-8.6716,1.8826,27.4859,0.2046,8,216,2,15027.4859,26.0932
610,1,1,-7.3992,6.6579,30.5552,1.5589,15,302,2,15255.5552,228.0693
614,1,1,-9.5611,-6.005,28.2961,1.8626,2,72,2,15353.2961,97.7409
617,1,1,-7.8476,-7.394,26.7033,0.7501,13,47,2,15426.7033,73.4072
627,1,1,-6.301,3.4056,27.9822,0.7218,22,243,2,15677.9822,251.2789
627,1,1,-7.9859,-8.3695,28.4533,1.7791,12,29,2,15678.4533,0.4711
636,1,1,-8.8905,-8.6946,26.067,0.6699,6,23,2,15901.067,222.6137
637,1,1,-5.507,5.9731,27.7249,0.8729,27,290,2,15927.7249,26.6579
637,1,1,-5.905,3.394,30.4068,1.2987,24,243,2,15930.4068,2.6819
639,1,1,-7.8473,-6.7453,29.8174,1.3816,13,59,2,15979.8174,49.4106
642,1,1,-9.364,6.8089,28.4724,0.4794,3,305,2,16053.4724,73.655
644,1,1,-7.5075,0.4772,28.109,1.1296,15,190,2,16103.109,49.6366
647,1,1,-8.4923,2.4933,30.5578,0.5796,9,227,2,16180.5578,77.4488
649,1,1,-8.6713,0.443,29.7222,0.7178,8,189,2,16229.7222,49.1644
653,1,1,-9.5507,5.3202,29.1398,0.829,2,278,2,16329.1398,99.4176
656,1,1,-6.0027,2.9401,26.9988,1.4704,24,235,2,16401.9988,72.859
658,1,1,-8.3283,7.5147,26.574,1.3652,10,318,2,16451.574,49.5752
661,1,1,-8.5378,0.8334,29.6741,1.533,8,196,2,16529.6741,78.1001
670,1,1,-8.2666,-4.8244,29.0603,0.5731,10,94,2,16754.0603,224.3862
678,1,1,-7.9018,-4.2976,30.1986,1.2115,12,103,2,16955.1986,201.1383
681,1,1,-5.7112,-9.2483,30.5243,1.284,25,13,2,17030.5243,75.3257
683,1,1,-8.6298,-7.0402,27.762,1.9308,8,53,2,17077.762,47.2377
684,1,1,-5.307,-6.8904,30.4544,0.1872,28,56,2,17105.4544,27.6924
685,1,1,-5.965,7.049,29.6892,0.2714,24,309,2,17129.6892,24.2348
688,1,1,-5.7499,4.3982,26.3308,0.9257,25,261,2,17201.3308,71.6416
698,1,1,-8.7201,0.7305,28.6486,1.34,7,195,2,17453.6486,252.3178
698,1,1,-6.988,3.5589,29.3195,1.0853,18,246,2,17454.3195,0.6709
698,1,1,-5.7464,-2.1416,30.644,0.203,25,142,2,17455.644,1.3245
699,1,1,-5.6127,0.3366,29.1534,0.5407,26,187,2,17479.1534,23.5094
700,1,1,-5.7627,-7.9196,26.9583,0.9318,25,37,2,17501.9583,22.8049
701,1,1,-8.7862,-9.0211,26.3378,0.6972,7,17,2,17526.3378,24.3795
702,1,1,-8.2935,0.7078,28.1157,0.9488,10,194,2,17553.1157,26.7779
703,1,1,-9.1488,-1.3003,28.4592,0.5591,5,158,2,17578.4592,25.3435
703,1,1,-5.8429,-7.4817,29.3288,0.8397,25,45,2,17579.3288,0.8696
704,1,1,-5.9904,6.6762,28.5872,0.3533,24,303,2,17603.5872,24.2584
707,1,1,-9.4935,5.1629,26.1989,0.1552,3,275,2,17676.1989,72.6117
709,1,1,-5.3996,7.0661,30.5319,1.3681,27,310,2,17730.5319,54.333
714,1,1,-6.824,0.7281,27.8928,1.2512,19,195,2,17852.8928,122.3609
717,1,1,-8.489,-5.9881,29.3428,1.7437,9,72,2,17929.3428,76.45
720,1,1,-7.8108,-3.9856,27.4016,1.4561,13,109,2,18002.4016,73.0588
722,1,1,-6.3368,-3.0967,27.085,0.7042,22,125,2,18052.085,49.6834
723,1,1,-5.6184,-3.9865,26.9675,1.1389,26,109,2,18076.9675,24.8825
727,1,1,-5.9523,-8.2581,30.6084,1.8522,24,31,2,18180.6084,103.6409
729,1,1,-8.7231,3.2186,29.7538,0.3801,7,240,2,18229.7538,49.1454
730,1,1,-7.5358,2.3017,30.7517,0.6383,14,223,2,18255.7517,25.9979
731,1,1,-8.7109,1.6596,30.2714,0.2474,7,211,2,18280.2714,24.5197
732,1,1,-9.0728,-1.3259,29.2884,0.4605,5,157,2,18304.2884,24.017
733,1,1,-5.7531,3.9101,29.2368,1.1183,25,252,2,18329.2368,24.9484
735,1,1,-5.2747,1.8302,30.8406,0.3371,28,215,2,18380.8406,51.6038
745,1,1,-5.4337,6.2862,27.3684,1.6049,27,296,2,18627.3684,246.5278
746,1,1,-7.7026,2.9413,28.8558,1.7412,13,235,2,18653.8558,26.4874
753,1,1,-8.2323,-4.1183,28.1613,0.6751,10,106,2,18828.1613,174.3055
753,1,1,-6.0737,-4.7909,29.0815,0.3485,23,94,2,18829.0815,0.9202
760,1,1,-6.6062,-4.5659,26.8999,0.28,20,98,2,19001.8999,172.8184
761,1,1,-8.9707,-3.832,29.8421,0.6505,6,112,2,19029.8421,27.9422
764,1,1,-5.7431,-8.2221,30.5605,1.5757,25,32,2,19105.5605,75.7184
766,1,1,-7.9502,-5.9188,30.1444,0.9129,12,74,2,19155.1444,49.5839
769,1,1,-8.024,-1.4302,28.3936,1.1848,11,155,2,19228.3936,73.2492
770,1,1,-9.3335,-4.6599,29.5536,1.1381,4,97,2,19254.5536,26.16
781,1,1,-7.7862,-6.8106,26.21,1.056,13,57,2,19526.21,271.6564
785,1,1,-6.3624,1.8758,26.5792,1.8321,22,215,2,19626.5792,100.3692
789,1,1,-5.9532,6.5358,30.1791,1.8741,24,300,2,19730.1791,103.5999
791,1,1,-7.9543,0.4435,29.4565,1.0034,12,189,2,19779.4565,49.2774
797,1,1,-9.5403,-2.3538,27.1418,1.9643,2,139,2,19927.1418,147.6853
797,1,1,-8.4594,2.9777,29.0914,0.2527,9,235,2,19929.0914,1.9496
801,1,1,-9.443,0.819,27.8682,1.3279,3,196,2,20027.8682,98.7768
805,1,1,-7.2329,-0.725,28.3527,1.2046,16,168,2,20128.3527,100.4845
813,1,1,-6.6092,-5.6777,28.2981,0.8989,20,78,2,20328.2981,199.9454
822,1,1,-7.6251,-6.2086,27.9853,1.0407,14,68,2,20552.9853,224.6872
822,1,1,-8.4721,0.4199,30.9227,0.3546,9,189,2,20555.9227,2.9374
825,1,1,-8.4027,0.2655,27.7972,1.1072,9,186,2,20627.7972,71.8745
830,1,1,-8.6757,-2.7387,26.3349,1.9898,8,132,2,20751.3349,123.5377
830,1,1,-7.6574,2.9783,29.362,1.9834,14,235,2,20754.362,3.0271
832,1,1,-5.7879,-8.4846,30.966,1.68,25,27,2,20805.966,51.604
836,1,1,-7.2449,-9.9493,26.7347,1.8645,16,0,2,20901.7347,95.7687
838,1,1,-7.317,3.0394,26.2422,1.1255,16,237,2,20951.2422,49.5075
846,1,1,-5.6128,-8.1008,30.72,1.2872,26,34,2,21155.72,204.4778
853,1,1,-8.002,-9.1312,26.6015,1.8095,12,15,2,21326.6015,170.8815
853,1,1,-7.3804,-3.6223,30.995,0.9447,15,115,2,21330.995,4.3935
855,1,1,-7.808,6.8519,29.3141,0.2335,13,306,2,21379.3141,48.3191
862,1,1,-5.653,5.6952,28.6862,1.5302,26,285,2,21553.6862,174.3721
863,1,1,-6.8437,2.2259,26.7616,1.5445,19,222,2,21576.7616,23.0754
866,1,1,-8.8019,-0.9952,30.6969,1.427,7,163,2,21655.6969,78.9353
869,1,1,-8.1043,5.7072,27.7797,1.1946,11,285,2,21727.7797,72.0828
870,1,1,-5.7388,4.5364,27.8979,1.7986,25,264,2,21752.8979,25.1182
877,1,1,-7.3451,-9.4779,27.7048,1.1201,16,9,2,21927.7048,174.8069
879,1,1,-9.0631,-7.0902,26.7878,1.6322,5,52,2,21976.7878,49.083
884,1,1,-7.3983,3.6335,26.7213,0.3536,15,247,2,22101.7213,124.9335
889,1,1,-7.0763,-6.81,27.6171,0.7357,17,58,2,22227.6171,125.8958
893,1,1,-9.2064,-6.1009,28.1048,0.3074,4,70,2,22328.1048,100.4877
899,1,1,-9.3064,2.5589,27.4665,1.4183,4,228,2,22477.4665,149.3617
899,1,1,-8.6897,0.6403,29.6809,0.518,7,193,2,22479.6809,2.2144
903,1,1,-7.6274,-9.8863,27.2922,0.418,14,2,2,22577.2922,97.6113
907,1,1,-6.8795,-6.6447,26.4385,1.111,18,61,2,22676.4385,99.1463
907,1,1,-8.3987,-7.5386,27.825,1.1773,9,44,2,22677.825,1.3865
908,1,1,-6.1013,-8.7035,26.6038,0.8795,23,23,2,22701.6038,23.7788
909,1,1,-8.2388,-4.9671,30.7334,0.8158,10,91,2,22730.7334,29.1296
913,1,1,-9.266,-5.5905,27.3585,1.0114,4,80,2,22827.3585,96.6251
919,1,1,-7.7947,-7.0011,27.2047,1.4051,13,54,2,22977.2047,149.8462
919,1,1,-5.6513,-5.3033,27.8023,1.5951,26,85,2,22977.8023,0.5976
921,1,1,-8.7535,-3.4473,26.0382,1.4219,7,119,2,23026.0382,48.2359
921,1,1,-6.7905,2.1151,28.6112,0.3888,19,220,2,23028.6112,2.573
924,1,1,-8.8833,3.328,28.059,0.5153,6,242,2,23103.059,74.4478
925,1,1,-5.4809,0.03,29.4655,0.4643,27,182,2,23129.4655,26.4065
926,1,1,-6.451,-6.8883,26.3158,0.8413,21,56,2,23151.3158,21.8503
926,1,1,-8.4736,1.9289,29.9307,1.9462,9,216,2,23154.9307,3.6149
926,1,1,-7.6077,-6.2042,30.9397,0.4067,14,69,2,23155.9397,1.009
930,1,1,-7.8731,0.0816,26.6917,0.1851,12,183,2,23251.6917,95.752
932,1,1,-5.2722,-3.7926,27.7639,1.0015,28,112,2,23302.7639,51.0722
937,1,1,-7.7095,2.2522,30.4966,0.6632,13,222,2,23430.4966,127.7327
938,1,1,-6.7954,5.7632,27.1766,1.929,19,286,2,23452.1766,21.68
941,1,1,-7.9111,-9.7311,28.2728,0.6152,12,4,2,23528.2728,76.0962
943,1,1,-9.5044,7.1668,30.3496,1.6901,3,312,2,23580.3496,52.0768
945,1,1,-8.8494,2.6775,30.0145,0.1434,6,230,2,23630.0145,49.6649
949,1,1,-7.7701,5.1524,28.1493,0.7204,13,275,2,23728.1493,98.1348
953,1,1,-5.9301,5.9999,29.5188,1.2234,24,290,2,23829.5188,101.3695
956,1,1,-7.5352,0.4896,27.8477,0.1099,14,190,2,23902.8477,73.3289
959,1,1,-8.4287,-6.4082,28.5519,1.1119,9,65,2,23978.5519,75.7042
962,1,1,-6.5183,5.34,26.4255,1.1591,21,278,2,24051.4255,72.8736
963,1,1,-7.5456,3.585,28.3822,0.918,14,247,2,24078.3822,26.9567
969,1,1,-5.3969,6.5649,28.9677,1.6072,27,301,2,24228.9677,150.5855
970,1,1,-6.8718,-5.2868,30.8247,0.4676,18,85,2,24255.8247,26.857
971,1,1,-8.1154,-7.6262,29.3206,1.0717,11,43,2,24279.3206,23.4959
975,1,1,-7.6674,-3.1839,28.1802,1.1832,14,123,2,24378.1802,98.8596
978,1,1,-8.0277,-4.9527,29.3231,1.7947,11,91,2,24454.3231,76.1429
980,1,1,-5.4879,6.0819,29.1136,0.198,27,292,2,24504.1136,49.7905
981,1,1,-8.5165,-6.4462,29.2217,0.2596,8,64,2,24529.2217,25.1081
983,1,1,-6.7118,-7.1295,26.8843,0.3715,19,52,2,24576.8843,47.6626
984,1,1,-8.7242,5.2827,27.9646,0.3537,7,277,2,24602.9646,26.0803
985,1,1,-8.8218,-7.8769,26.0611,1.707,7,38,2,24626.0611,23.0965
991,1,1,-8.8227,2.1742,28.7149,0.1234,7,221,2,24778.7149,152.6538
1004,1,1,-7.9158,-0.0691,29.1343,0.5961,12,180,2,25104.1343,325.4194
1005,1,1,-8.4626,-0.7211,30.7446,0.2277,9,168,2,25130.7446,26.6103
1010,1,1,-8.0891,-5.3573,27.778,1.4831,11,84,2,25252.778,122.0334
1013,1,1,-5.47,4.7222,29.4265,1.4602,27,267,2,25329.4265,76.6485
1015,1,1,-9.0967,6.983,30.361,0.5451,5,308,2,25380.361,50.9345
1016,1,1,-5.9303,4.7456,27.8169,0.9834,24,268,2,25402.8169,22.4559
1018,1,1,-6.2683,-8.2393,28.9991,0.8299,22,32,2,25453.9991,51.1822
1021,1,1,-9.145,-4.7323,30.1593,1.4166,5,95,2,25530.1593,76.1602
1025,1,1,-8.9113,-6.4092,26.4169,0.3296,6,65,2,25626.4169,96.2576
1035,1,1,-7.2448,0.6984,26.4553,1.0913,16,194,2,25876.4553,250.0384
1037,1,1,-5.4846,3.0078,26.1382,1.0121,27,236,2,25926.1382,49.6829
1037,1,1,-7.6626,-1.1056,26.2784,1.3846,14,161,2,25926.2784,0.1402
1037,1,1,-8.8522,-5.9159,27.5683,1.3263,6,74,2,25927.5683,1.2899
1043,1,1,-5.4453,4.234,30.4653,1.5768,27,258,2,26080.4653,152.897
1044,1,1,-8.2287,-0.3742,27.7834,1.1837,10,175,2,26102.7834,22.3181
1044,1,1,-7.1184,2.2441,30.5273,0.3459,17,222,2,26105.5273,2.7439
1047,1,1,-9.1799,-8.6251,28.7484,0.1243,4,24,2,26178.7484,73.2211
1048,1,1,-9.3515,-5.8336,26.5854,0.3554,3,75,2,26201.5854,22.837
1057,1,1,-6.0933,7.3586,29.2998,0.3432,23,315,2,26429.2998,227.7144
1058,1,1,-7.8235,6.1754,29.7624,1.2247,13,294,2,26454.7624,25.4626
1059,1,1,-8.3955,-8.489,28.0605,1.9024,9,27,2,26478.0605,23.2981
1059,1,1,-8.5342,6.1877,28.8041,0.9521,8,294,2,26478.8041,0.7436
1063,1,1,-5.2643,0.7667,27.45,1.4142,28,195,2,26577.45,98.6459
1063,1,1,-9.0077,-9.505,29.4321,0.435,6,8,2,26579.4321,1.9821
1070,1,1,-8.1335,-8.5401,27.2722,0.8853,11,26,2,26752.2722,172.8401
1073,1,1,-5.5504,3.4344,27.7155,1.7644,26,244,2,26827.7155,75.4433
1075,1,1,-5.8807,-4.6724,26.519,1.066,24,96,2,26876.519,48.8035
1078,1,1,-6.3934,5.7912,28.0762,0.9973,21,287,2,26953.0762,76.5572
1084,1,1,-6.7683,-2.2156,29.2897,0.6826,19,141,2,27104.2897,151.2135
1085,1,1,-8.5523,-5.4467,27.3156,0.1732,8,82,2,27127.3156,23.0259
1085,1,1,-9.2388,-0.7911,30.1631,1.4715,4,167,2,27130.1631,2.8475
1088,1,1,-5.5825,-3.0467,28.1988,0.4893,26,126,2,27203.1988,73.0357
1090,1,1,-5.6134,1.7604,27.4349,1.8878,26,213,2,27252.4349,49.2361
1090,1,1,-6.1472,1.3918,28.8368,1.8334,23,207,2,27253.8368,1.4019
1094,1,1,-8.0683,-3.6105,28.1936,0.5963,11,116,2,27353.1936,99.3568
1095,1,1,-7.6104,-7.4808,29.2108,0.3425,14,45,2,27379.2108,26.0172
1098,1,1,-5.5956,-8.3147,26.0509,0.7373,26,30,2,27451.0509,71.8401
1101,1,1,-8.3721,6.9218,26.9913,1.4281,9,307,2,27526.9913,75.9404
1101,1,1,-6.4229,-2.3426,27.4809,1.1529,21,139,2,27527.4809,0.4896
1101,1,1,-9.2143,-2.3942,30.196,0.2258,4,138,2,27530.196,2.7151
1106,1,1,-8.2611,-1.5669,28.7859,1.6956,10,153,2,27653.7859,123.5899
1106,1,1,-7.1446,-7.4077,30.9666,0.4993,17,47,2,27655.9666,2.1807
1113,1,1,-7.933,-2.2093,27.8715,1.7623,12,141,2,27827.8715,171.9049
1118,1,1,-7.1122,-3.6521,28.7443,1.7327,17,115,2,27953.7443,125.8728
1118,1,1,-7.4202,-9.1583,29.5533,0.69,15,15,2,27954.5533,0.809
1122,1,1,-8.688,3.5853,30.451,1.4227,7,247,2,28055.451,100.8977
1123,1,1,-5.537,-2.6188,30.8943,0.9917,27,134,2,28080.8943,25.4433
1124,1,1,-9.5007,2.3985,27.2899,1.2214,3,225,2,28102.2899,21.3956
1126,1,1,-8.1711,-6.8864,30.2587,1.7392,11,56,2,28155.2587,52.9688
1127,1,1,-6.0073,4.6501,26.1249,0.9917,24,266,2,28176.1249,20.8662
1128,1,1,-8.4348,-4.6541,30.8953,1.863,9,97,2,28205.8953,29.7704
1129,1,1,-6.5259,2.9029,27.6129,1.5394,21,234,2,28227.6129,21.7176
1132,1,1,-9.5652,0.3266,27.939,1.6696,2,187,2,28302.939,75.3261
1134,1,1,-6.4768,-2.5072,27.223,0.3331,21,136,2,28352.223,49.284
1139,1,1,-5.4072,-6.5954,29.6678,0.6246,27,61,2,28479.6678,127.4448
1140,1,1,-8.8292,-4.6851,28.812,0.9145,7,96,2,28503.812,24.1442
1143,1,1,-5.9968,-4.3356,28.7919,0.873,24,102,2,28578.7919,74.9799
1145,1,1,-5.5361,-5.9113,30.1453,0.7263,27,74,2,28630.1453,51.3534
1148,1,1,-6.4665,-3.7136,28.2571,1.5896,21,114,2,28703.2571,73.1118
1149,1,1,-8.5279,-6.5952,30.1566,0.9508,8,61,2,28730.1566,26.8995
1154,1,1,-8.4483,0.5142,27.424,1.4642,9,191,2,28852.424,122.2674
1155,1,1,-6.6746,-0.8522,29.04,1.0967,20,166,2,28879.04,26.616
1169,1,1,-8.1551,-2.9076,26.5376,0.6317,11,128,2,29226.5376,347.4976
1174,1,1,-9.1221,5.0207,26.6308,0.4887,5,273,2,29351.6308,125.0932
1174,1,1,-7.2192,-6.4236,29.1086,1.5481,16,65,2,29354.1086,2.4778
1179,1,1,-6.2987,-4.7949,26.4024,0.9795,22,94,2,29476.4024,122.2938
1181,1,1,-9.4184,-6.1329,30.1698,1.6039,3,70,2,29530.1698,53.7674
1181,1,1,-6.4506,-5.4298,30.4772,0.6525,21,83,2,29530.4772,0.3074
1182,1,1,-5.8502,4.5514,28.8059,0.1107,25,264,2,29553.8059,23.3287
1185,1,1,-7.9262,5.3399,27.422,1.2798,12,278,2,29627.422,73.6161
1189,1,1,-7.0062,0.4597,30.1974,0.3708,18,190,2,29730.1974,102.7754
1190,1,1,-8.975,6.6546,26.5429,0.5194,6,302,2,29751.5429,21.3455
1193,1,1,-7.4483,-8.1452,27.9747,1.7109,15,33,2,29827.9747,76.4318
1199,1,1,-9.1297,-3.9088,28.4215,1.4967,5,110,2,29978.4215,150.4468
1200,1,1,-8.6827,4.8528,28.8791,0.4515,7,270,2,30003.8791,25.4576
1202,1,1,-7.0103,5.6194,28.4139,1.773,18,283,2,30053.4139,49.5348
1202,1,1,-5.4865,7.1963,30.6509,0.7502,27,312,2,30055.6509,2.237
1203,1,1,-5.3998,5.0838,26.0603,1.3302,27,274,2,30076.0603,20.4094
1204,1,1,-9.4497,-0.6385,29.6791,1.7516,3,170,2,30104.6791,28.6188
1205,1,1,-8.3767,-9.2549,27.294,1.9932,9,13,2,30127.294,22.6149
1210,1,1,-6.3164,6.2339,28.3356,0.7557,22,295,2,30253.3356,126.0416
1211,1,1,-8.8886,6.8813,29.9569,0.6408,6,306,2,30279.9569,26.6213
1216,1,1,-5.2782,-7.9862,27.3305,0.2008,28,36,2,30402.3305,122.3736
1219,1,1,-6.1576,6.6672,29.1765,0.3047,23,303,2,30479.1765,76.846
1220,1,1,-8.2092,-4.2208,28.8225,0.3165,10,105,2,30503.8225,24.646
1223,1,1,-5.4046,-4.1093,26.467,1.0086,27,107,2,30576.467,72.6445
1225,1,1,-6.4127,-1.1576,28.4936,1.1441,21,160,2,30628.4936,52.0266
1229,1,1,-8.9602,1.0985,30.139,1.5324,6,201,2,30730.139,101.6454
1237,1,1,-7.7543,-2.5834,29.6956,0.1578,13,134,2,30929.6956,199.5566
1244,1,1,-5.3933,-5.4866,26.1505,0.9754,27,82,2,31101.1505,171.4549
1246,1,1,-7.6771,-8.4228,30.0887,0.5744,14,28,2,31155.0887,53.9382
1248,1,1,-6.1016,3.6493,29.3526,0.5175,23,248,2,31204.3526,49.2639
1249,1,1,-9.022,-0.2424,27.2104,1.4605,5,177,2,31227.2104,22.8578
1250,1,1,-8.2612,-7.8631,26.3332,1.8537,10,38,2,31251.3332,24.1228
1250,1,1,-8.1923,-9.0252,26.7459,0.2501,10,17,2,31251.7459,0.4127
1252,1,1,-7.13,-4.3693,28.0464,1.0819,17,102,2,31303.0464,51.3005
1258,1,1,-7.6825,4.236,26.8253,0.2016,14,258,2,31451.8253,148.7789
1258,1,1,-6.8712,5.6162,29.8321,0.4159,18,283,2,31454.8321,3.0068
1259,1,1,-9.1307,2.9556,27.9812,0.8615,5,235,2,31477.9812,23.1491
1266,1,1,-6.4184,-2.7092,27.3775,0.9461,21,132,2,31652.3775,174.3963
1271,1,1,-7.8475,-8.7544,29.4774,1.2036,13,22,2,31779.4774,127.0999
1276,1,1,-6.2731,7.3297,27.225,1.4241,22,315,2,31902.225,122.7476
1280,1,1,-7.2177,-9.0617,27.8739,1.8964,16,17,2,32002.8739,100.6489
1280,1,1,-5.3876,2.1746,28.4903,0.9602,27,221,2,32003.4903,0.6164
1280,1,1,-8.2847,-7.8949,29.133,0.613,10,38,2,32004.133,0.6427
1283,1,1,-9.5362,-7.3452,28.3719,0.1235,2,48,2,32078.3719,74.2389
1283,1,1,-8.947,6.8734,30.0978,0.4722,6,306,2,32080.0978,1.7259
1284,1,1,-8.0859,-6.8024,28.6676,1.0881,11,58,2,32103.6676,23.5698
1286,1,1,-9.3649,-6.2116,30.9564,0.5497,3,68,2,32155.9564,52.2888
1288,1,1,-9.3437,-9.3601,30.7208,1.4156,3,11,2,32205.7208,49.7644
1289,1,1,-8.8682,0.2444,27.6256,1.3451,6,186,2,32227.6256,21.9048
1290,1,1,-5.8149,6.334,27.4228,1.6081,25,296,2,32252.4228,24.7972
1294,1,1,-7.2243,-9.308,27.6271,0.3081,16,12,2,32352.6271,100.2043
1300,1,1,-9.4935,-8.1231,27.6633,0.696,3,34,2,32502.6633,150.0362
1301,1,1,-5.6981,-5.9532,30.7084,1.0895,26,73,2,32530.7084,28.0451
1308,1,1,-6.6206,0.4576,29.2131,1.7522,20,190,2,32704.2131,173.5047
1315,1,1,-7.7696,-5.0016,27.1635,0.6047,13,90,2,32877.1635,172.9504
1316,1,1,-6.8831,-0.7984,30.5245,0.1818,18,167,2,32905.5245,28.361
1317,1,1,-8.29,4.0286,30.2695,0.8951,10,255,2,32930.2695,24.745
1327,1,1,-9.1868,0.9544,30.2121,1.812,4,199,2,33180.2121,249.9426
1330,1,1,-8.4581,-0.5874,28.1584,0.7573,9,171,2,33253.1584,72.9463
1339,1,1,-5.7623,-8.4039,29.8292,1.1829,25,29,2,33479.8292,226.6708
1340,1,1,-8.9756,-4.1459,28.9786,1.2324,6,106,2,33503.9786,24.1494
1345,1,1,-7.8827,-9.0166,27.0573,0.9939,12,17,2,33627.0573,123.0787
1348,1,1,-6.9356,6.9592,26.5374,1.9976,18,308,2,33701.5374,74.4801
1348,1,1,-9.1495,-7.3261,30.588,1.6287,5,48,2,33705.588,4.0506
1349,1,1,-7.643,2.5875,28.3878,0.9523,14,228,2,33728.3878,22.7998
1350,1,1,-8.0536,0.4525,27.055,1.4072,11,190,2,33752.055,23.6672
1350,1,1,-6.5202,-3.7701,30.989,0.1732,21,113,2,33755.989,3.934
1354,1,1,-5.6546,1.0534,26.1775,1.8237,26,200,2,33851.1775,95.1885
1355,1,1,-8.1762,-7.6258,26.9381,0.4327,11,43,2,33876.9381,25.7606
1358,1,1,-5.6318,1.9446,27.795,1.2157,26,217,2,33952.795,75.8569
1360,1,1,-7.1338,6.0067,30.1351,0.7411,17,291,2,34005.1351,52.3401
1366,1,1,-6.2091,-3.4223,28.8447,0.8997,22,119,2,34153.8447,148.7096
1366,1,1,-5.5916,-0.4128,30.9871,1.8393,26,174,2,34155.9871,2.1424
1367,1,1,-8.8317,-6.5546,26.5263,1.471,7,62,2,34176.5263,20.5392
1367,1,1,-6.5773,-7.3238,30.9107,0.4632,20,48,2,34180.9107,4.3844
1371,1,1,-6.2625,-1.6499,26.246,0.9709,22,151,2,34276.246,95.3353
1372,1,1,-9.2798,-0.0451,26.6526,0.7852,4,180,2,34301.6526,25.4066
1376,1,1,-7.3272,-1.5094,30.3311,0.4217,16,154,2,34405.3311,103.6785
1378,1,1,-7.1807,2.115,29.9374,1.1425,17,220,2,34454.9374,49.6063
1381,1,1,-5.7726,-3.2046,28.1849,0.1755,25,123,2,34528.1849,73.2475
1384,1,1,-9.3155,2.8554,28.2328,1.8358,4,233,2,34603.2328,75.0479
1386,1,1,-9.2375,2.1459,29.0497,1.091,4,220,2,34654.0497,50.8169
1387,1,1,-7.1618,2.6432,27.4781,1.6391,17,229,2,34677.4781,23.4284
1392,1,1,-7.4092,4.8224,28.2238,1.6253,15,269,2,34803.2238,125.7457
1399,1,1,-6.9596,-1.0958,28.4776,0.1946,18,161,2,34978.4776,175.2538
1400,1,1,-6.4863,2.7562,27.5616,0.2268,21,231,2,35002.5616,24.084
1403,1,1,-8.175,-4.4549,29.3198,1.9149,11,100,2,35079.3198,76.7582
1403,1,1,-8.0902,-0.604,30.632,0.7584,11,170,2,35080.632,1.3122
1412,1,1,-8.4538,5.9361,26.6421,1.1289,9,289,2,35301.6421,221.0101
1418,1,1,-7.2715,7.5701,28.4582,0.6187,16,319,2,35453.4582,151.8161
1419,1,1,-7.3809,4.2528,26.4259,0.7,15,259,2,35476.4259,22.9677
1424,1,1,-6.2807,-2.4751,28.8034,1.1402,22,136,2,35603.8034,127.3775
1425,1,1,-9.0918,6.5157,26.1763,0.1914,5,300,2,35626.1763,22.3729
1429,1,1,-8.5136,-9.7611,29.3007,0.7693,9,4,2,35729.3007,103.1244
1434,1,1,-7.7579,-7.016,27.895,1.1287,13,54,2,35852.895,123.5943
1448,1,1,-9.3042,2.3482,26.0778,1.0036,4,224,2,36201.0778,348.1828
1454,1,1,-7.1817,0.7932,30.8087,1.0054,17,196,2,36355.8087,154.7309
1457,1,1,-7.2868,-4.5222,26.5036,0.7971,16,99,2,36426.5036,70.6949
1457,1,1,-7.3546,-1.3519,29.434,0.8029,16,157,2,36429.434,2.9304
1462,1,1,-9.1596,-4.2989,30.456,0.972,5,103,2,36555.456,126.022
1463,1,1,-9.3327,4.3115,29.125,0.3587,4,260,2,36579.125,23.669
1465,1,1,-6.7662,0.2738,26.4117,0.6668,19,186,2,36626.4117,47.2867
1465,1,1,-7.8875,3.9019,29.0853,0.3046,12,252,2,36629.0853,2.6736
1467,1,1,-9.469,-8.9869,27.8102,1.1365,3,18,2,36677.8102,48.7249
1468,1,1,-6.0676,7.3731,30.0846,0.6824,23,315,2,36705.0846,27.2744
1470,1,1,-5.2718,-6.7384,29.185,0.3184,28,59,2,36754.185,49.1004
1474,1,1,-7.5783,5.8015,28.9347,0.9527,14,287,2,36853.9347,99.7497
1475,1,1,-7.2288,-4.4889,26.8694,0.6213,16,100,2,36876.8694,22.9347
1478,1,1,-7.4892,-8.6379,26.479,0.4572,15,24,2,36951.479,74.6096
1479,1,1,-8.1424,-6.3179,30.5144,1.0807,11,66,2,36980.5144,29.0354
1480,1,1,-8.8266,-2.902,29.9746,1.344,7,129,2,37004.9746,24.4602
1485,1,1,-6.6225,-3.5289,26.4103,1.5364,20,117,2,37126.4103,121.4357
1487,1,1,-7.3188,-4.3513,26.9119,1.6461,16,102,2,37176.9119,50.5016
1487,1,1,-6.9942,-5.6741,30.2195,1.3623,18,78,2,37180.2195,3.3076
1489,1,1,-5.327,-1.7537,29.6562,1.0545,28,149,2,37229.6562,49.4367
1500,1,1,-6.5188,-3.4909,27.8803,0.6078,21,118,2,37502.8803,273.2241
1500,1,1,-8.5396,-2.6687,28.263,1.3894,8,133,2,37503.263,0.3827
1504,1,1,-8.2303,-3.6377,27.4185,1.719,10,115,2,37602.4185,99.1555
1505,1,1,-7.3138,2.0082,27.5626,0.7058,16,218,2,37627.5626,25.1441
1508,1,1,-6.2131,-5.75,29.2391,0.9925,22,77,2,37704.2391,76.6765
1509,1,1,-7.4393,-2.1373,30.4258,1.6199,15,142,2,37730.4258,26.1867
1510,1,1,-8.7575,-6.7076,30.2668,0.9231,7,59,2,37755.2668,24.841
1515,1,1,-5.8873,-1.248,27.3596,1.3591,24,159,2,37877.3596,122.0928
1518,1,1,-5.6899,0.0792,27.8073,1.7106,26,183,2,37952.8073,75.4477
1520,1,1,-7.3156,2.074,26.4218,0.6923,16,219,2,38001.4218,48.6145
1521,1,1,-5.6211,-2.943,27.9973,0.8255,26,128,2,38027.9973,26.5755
1522,1,1,-8.6918,-3.0684,26.4978,1.0506,7,126,2,38051.4978,23.5005
1534,1,1,-7.1083,-7.4195,28.2318,0.659,17,46,2,38353.2318,301.734
1535,1,1,-8.6785,6.0727,28.1845,1.0461,8,292,2,38378.1845,24.9527
1543,1,1,-7.9065,-9.2409,26.043,1.514,12,13,2,38576.043,197.8585
1550,1,1,-5.3563,6.6522,27.5685,1.4238,28,302,2,38752.5685,176.5255
1552,1,1,-7.7925,2.2141,28.9402,0.3873,13,222,2,38803.9402,51.3717
1561,1,1,-8.5964,1.9948,27.4113,0.894,8,218,2,39027.4113,223.4711
1568,1,1,-6.7971,2.1728,30.8813,0.9752,19,221,2,39205.8813,178.47
1573,1,1,-7.8108,2.2187,27.6753,1.029,13,222,2,39327.6753,121.794
1581,1,1,-6.8886,6.2975,29.5643,0.4033,18,296,2,39529.5643,201.889
1587,1,1,-5.4535,-2.0167,29.65,1.2205,27,145,2,39679.65,150.0857
1589,1,1,-7.3516,-1.5907,26.4444,1.1565,16,152,2,39726.4444,46.7944
1590,1,1,-7.4841,4.4913,28.536,1.7303,15,263,2,39753.536,27.0916
1593,1,1,-5.6098,4.9622,29.8429,1.0892,26,272,2,39829.8429,76.3069
1596,1,1,-6.3772,-0.1803,26.0674,1.0124,21,178,2,39901.0674,71.2245
1596,1,1,-9.0746,-6.3592,26.7318,0.5371,5,66,2,39901.7318,0.6644
1598,1,1,-5.8594,-6.4333,26.5145,0.5492,25,64,2,39951.5145,49.7827
1599,1,1,-5.627,4.2947,26.5061,0.4039,26,259,2,39976.5061,24.9916
1599,1,1,-6.8755,4.1679,27.2905,1.1373,18,257,2,39977.2905,0.7844
1600,1,1,-5.9697,-0.1158,29.3982,0.886,24,179,2,40004.3982,27.1077
1616,1,1,-7.7885,6.0147,28.3758,1.2037,13,291,2,40403.3758,398.9776
1617,1,1,-7.7185,-8.7092,27.1186,0.1213,13,23,2,40427.1186,23.7428
1617,1,1,-7.7296,5.2916,29.315,1.6036,13,278,2,40429.315,2.1964
1617,1,1,-9.5125,-9.3319,29.4445,0.1193,2,12,2,40429.4445,0.1295
1620,1,1,-7.3602,1.3415,26.457,1.7596,15,206,2,40501.457,72.0125
1629,1,1,-5.2497,4.0183,27.8948,0.339,28,254,2,40727.8948,226.4378
1629,1,1,-5.9738,-1.246,29.5209,0.9595,24,159,2,40729.5209,1.6261
1634,1,1,-6.8687,0.2136,29.8759,0.9953,18,185,2,40854.8759,125.355
1635,1,1,-7.7498,-8.8699,29.2312,1.3243,13,20,2,40879.2312,24.3553
1636,1,1,-9.5902,5.3678,30.8525,1.4821,2,279,2,40905.8525,26.6213
1638,1,1,-6.8227,-6.0403,27.0363,1.6125,19,71,2,40952.0363,46.1838
1642,1,1,-7.9638,1.0933,26.4686,1.0653,12,201,2,41051.4686,99.4323
1643,1,1,-7.268,-6.4588,27.7837,0.278,16,64,2,41077.7837,26.3151
1644,1,1,-9.5396,6.3988,27.0486,0.9188,2,298,2,41102.0486,24.2649
1645,1,1,-5.5757,6.2681,26.5568,1.5482,26,295,2,41126.5568,24.5082
1645,1,1,-9.2743,3.6023,30.8965,0.3018,4,247,2,41130.8965,4.3397
1652,1,1,-7.1865,-4.8936,30.3886,1.5856,17,92,2,41305.3886,174.4921
1662,1,1,-8.3348,4.4994,29.6233,1.1128,10,263,2,41554.6233,249.2347
1665,1,1,-9.026,-4.8064,29.821,1.5148,5,94,2,41629.821,75.1977
1668,1,1,-6.0129,2.9768,27.1348,1.813,24,235,2,41702.1348,72.3138
1669,1,1,-5.6375,-7.6749,28.0183,0.196,26,42,2,41728.0183,25.8835
1672,1,1,-7.772,-6.6889,29.9687,1.5863,13,60,2,41804.9687,76.9504
1674,1,1,-8.1726,6.6735,26.5584,1.8752,11,303,2,41851.5584,46.5897
1682,1,1,-8.7384,-8.215,27.7147,0.1387,7,32,2,42052.7147,201.1563
1685,1,1,-7.8773,-9.8464,26.6082,0.9126,12,2,2,42126.6082,73.8935
1689,1,1,-7.4139,3.727,26.2475,1.4157,15,249,2,42226.2475,99.6393
1692,1,1,-8.5967,-8.9203,26.3998,0.4947,8,19,2,42301.3998,75.1523
1698,1,1,-7.434,-5.0028,29.0824,0.6094,15,90,2,42454.0824,152.6826
1701,1,1,-9.3421,6.8115,30.9463,1.6916,3,305,2,42530.9463,76.8639
1703,1,1,-6.0968,6.328,27.708,0.4481,23,296,2,42577.708,46.7617
1705,1,1,-6.016,0.2003,28.3732,0.485,24,185,2,42628.3732,50.6652
1706,1,1,-8.2914,2.5208,28.3084,0.1041,10,227,2,42653.3084,24.9352
1714,1,1,-6.6867,2.6522,29.2787,0.7928,20,230,2,42854.2787,200.9703
1721,1,1,-5.2903,-7.9693,30.8323,1.0476,28,36,2,43030.8323,176.5536
1733,1,1,-6.4342,3.7232,28.1357,0.5925,21,249,2,43328.1357,297.3034
1734,1,1,-6.3296,4.0517,30.9875,1.0585,22,255,2,43355.9875,27.8518
1735,1,1,-8.2882,1.9741,29.1386,1.5391,10,217,2,43379.1386,23.1511
1738,1,1,-6.0349,-9.7553,26.1078,1.6284,24,4,2,43451.1078,71.9692
1740,1,1,-8.0553,-2.8651,28.2588,0.989,11,129,2,43503.2588,52.151
1742,1,1,-5.801,7.3023,29.6568,0.8793,25,314,2,43554.6568,51.398
1743,1,1,-5.417,-4.5254,28.339,1.5738,27,99,2,43578.339,23.6822
1744,1,1,-5.4215,4.6801,30.6898,0.3531,27,266,2,43605.6898,27.3508
1745,1,1,-8.4052,0.0293,27.3718,1.6803,9,182,2,43627.3718,21.682
1747,1,1,-6.3795,5.73,29.9632,1.2706,21,286,2,43679.9632,52.5914
1748,1,1,-6.8675,-7.5076,27.164,0.5706,18,45,2,43702.164,22.2008
1750,1,1,-6.284,-7.0269,29.1317,0.2888,22,54,2,43754.1317,51.9677
1752,1,1,-6.4316,6.3816,29.8693,0.2637,21,297,2,43804.8693,50.7376
1760,1,1,-8.7325,-1.0687,27.0382,0.4647,7,162,2,44002.0382,197.1689
1763,1,1,-8.6722,-8.388,30.7199,1.6281,8,29,2,44080.7199,78.6817
1765,1,1,-6.8232,2.5689,28.5926,1.4271,19,228,2,44128.5926,47.8727
1766,1,1,-9.4905,-7.3293,30.8247,0.6412,3,48,2,44155.8247,27.2321
1768,1,1,-5.6559,-9.2966,27.3014,0.5334,26,12,2,44202.3014,46.4767
1769,1,1,-7.467,-5.792,27.2854,0.7992,15,76,2,44227.2854,24.984
1772,1,1,-7.7978,-8.2655,26.5793,0.4405,13,31,2,44301.5793,74.2939
1776,1,1,-9.4731,-5.7461,28.0096,0.2279,3,77,2,44403.0096,101.4303
1777,1,1,-7.706,-5.1162,28.4498,0.6185,13,88,2,44428.4498,25.4402
1777,1,1,-8.2619,-6.4385,30.9701,0.8535,10,64,2,44430.9701,2.5203
1779,1,1,-6.9521,-4.8156,30.586,1.2366,18,94,2,44480.586,49.6159
1782,1,1,-6.3586,1.3193,28.6098,0.5415,22,205,2,44553.6098,73.0238
1783,1,1,-6.8831,-2.525,28.6901,0.7579,18,135,2,44578.6901,25.0803
1786,1,1,-6.0867,-9.608,26.9557,0.4402,23,7,2,44651.9557,73.2656
1795,1,1,-8.5781,-6.5392,27.4762,0.895,8,62,2,44877.4762,225.5205
1801,1,1,-8.4878,-6.7119,27.5092,1.0854,9,59,2,45027.5092,150.033
1806,1,1,-7.9395,-6.1271,26.4926,1.5594,12,70,2,45151.4926,123.9834
1807,1,1,-5.6635,-6.3198,29.8474,1.5883,26,66,2,45179.8474,28.3548
1808,1,1,-6.3732,-0.0251,28.8611,0.2571,21,181,2,45203.8611,24.0137
1809,1,1,-6.7922,5.0089,28.4729,0.6333,19,272,2,45228.4729,24.6118
1809,1,1,-8.9256,-6.4497,30.7955,0.3272,6,64,2,45230.7955,2.3226
1811,1,1,-6.1759,5.6383,29.3342,0.8552,23,284,2,45279.3342,48.5387
1816,1,1,-9.3966,-3.0728,27.6091,0.7979,3,125,2,45402.6091,123.2749
1828,1,1,-6.8038,-7.5035,26.0261,1.192,19,45,2,45701.0261,298.417
1829,1,1,-9.2299,-8.4102,27.6712,1.6032,4,28,2,45727.6712,26.6451
1831,1,1,-8.3934,-0.7342,26.0436,0.6555,9,168,2,45776.0436,48.3724
1831,1,1,-6.607,-2.1913,29.3899,0.3625,20,141,2,45779.3899,3.3463
1832,1,1,-6.3985,1.5334,30.2844,0.9771,21,209,2,45805.2844,25.8945
1839,1,1,-6.9988,-1.8156,26.6164,1.7011,18,148,2,45976.6164,171.332
1845,1,1,-5.8411,4.2064,30.2949,0.8111,25,258,2,46130.2949,153.6785
1847,1,1,-7.1107,-7.3298,29.9082,0.9062,17,48,2,46179.9082,49.6133
1847,1,1,-7.9564,-2.4928,30.9724,1.4332,12,136,2,46180.9724,1.0642
1851,1,1,-7.4081,-5.4803,28.1367,1.1016,15,82,2,46278.1367,97.1643
1854,1,1,-6.7891,-7.5471,28.6163,0.8676,19,44,2,46353.6163,75.4796
1859,1,1,-5.6691,7.0653,27.4906,0.865,26,310,2,46477.4906,123.8743
1859,1,1,-8.8424,-4.8488,28.7328,1.2221,7,93,2,46478.7328,1.2422
1859,1,1,-7.1463,-9.9857,29.9645,1.4112,17,0,2,46479.9645,1.2317
1867,1,1,-9.0442,3.8375,28.8279,0.7308,5,251,2,46678.8279,198.8634
1871,1,1,-8.9514,-1.8789,30.9762,0.7657,6,147,2,46780.9762,102.1483
1873,1,1,-6.747,1.4481,30.218,1.1024,19,208,2,46830.218,49.2418
1875,1,1,-7.6374,-4.932,26.0483,1.6518,14,92,2,46876.0483,45.8303
1882,1,1,-6.8373,-3.0402,26.8948,1.362,19,126,2,47051.8948,175.8465
1886,1,1,-6.5571,2.8577,27.1389,1.6777,20,233,2,47152.1389,100.2441
1887,1,1,-5.6286,5.3531,26.9625,1.4203,26,279,2,47176.9625,24.8236
1890,1,1,-6.7256,-4.9224,30.5802,0.1702,19,92,2,47255.5802,78.6177
1893,1,1,-7.269,-5.4237,28.3852,1.2773,16,83,2,47328.3852,72.805
1894,1,1,-9.4042,-6.6881,30.0159,0.2215,3,60,2,47355.0159,26.6307
1895,1,1,-6.8806,-0.8488,26.0342,0.2912,18,166,2,47376.0342,21.0183
1897,1,1,-8.6812,-5.925,27.276,0.1235,7,74,2,47427.276,51.2418
1899,1,1,-5.3507,-7.8905,30.7913,1.3156,28,38,2,47480.7913,53.5153
1902,1,1,-7.0233,0.7895,26.0539,0.4412,18,196,2,47551.0539,70.2626
1902,1,1,-5.9431,-0.8934,27.4012,1.8758,24,165,2,47552.4012,1.3473
1903,1,1,-9.0916,-7.1848,30.9563,0.2737,5,51,2,47580.9563,28.5551
1904,1,1,-6.7821,0.944,27.7816,1.129,19,198,2,47602.7816,21.8253
1905,1,1,-6.6428,-3.5834,26.9854,1.3633,20,116,2,47626.9854,24.2038
1908,1,1,-7.8658,-4.2701,27.4768,0.578,12,104,2,47702.4768,75.4914
1909,1,1,-6.0212,3.8799,29.0685,1.0448,24,252,2,47729.0685,26.5917
1917,1,1,-5.5673,-6.3281,27.4531,0.6422,26,66,2,47927.4531,198.3846
1919,1,1,-5.8716,-5.9906,28.3123,1.3405,25,72,2,47978.3123,50.8592
1925,1,1,-7.1929,7.1996,26.1947,0.9711,17,312,2,48126.1947,147.8824
1925,1,1,-5.9264,2.8273,28.9338,1.8657,24,233,2,48128.9338,2.7391
1931,1,1,-7.1861,-5.4804,27.5595,1.6709,17,82,2,48277.5595,148.6257
1937,1,1,-7.8834,0.845,27.0962,0.7442,12,197,2,48427.0962,149.5367
1942,1,1,-7.8007,-7.3157,30.649,0.4474,13,48,2,48555.649,128.5528
1943,1,1,-8.5046,4.7287,29.8378,0.5634,9,267,2,48579.8378,24.1888
1943,1,1,-8.4795,4.9942,30.3326,1.1312,9,272,2,48580.3326,0.4948
1951,1,1,-5.6461,-8.6153,27.174,1.3622,26,25,2,48777.174,196.8414
1958,1,1,-8.2859,0.1413,26.4588,1.7754,10,184,2,48951.4588,174.2848
1967,1,1,-5.8603,-7.866,28.5296,0.1546,25,38,2,49178.5296,227.0708
1967,1,1,-6.7912,-7.244,30.7404,0.5144,19,50,2,49180.7404,2.2108
1970,1,1,-5.216,1.1236,28.6974,1.0198,28,202,2,49253.6974,72.957
1972,1,1,-7.4864,3.6965,27.2215,0.67,15,249,2,49302.2215,48.5241
1972,1,1,-5.9441,-0.5869,28.6428,0.6012,24,171,2,49303.6428,1.4213
1978,1,1,-6.9079,4.3384,29.1186,1.9095,18,260,2,49454.1186,150.4758
1980,1,1,-7.7456,3.5916,28.8069,0.7023,13,247,2,49503.8069,49.6883
1983,1,1,-7.8944,-3.6859,30.3074,0.7711,12,114,2,49580.3074,76.5005
1985,1,1,-6.5091,-3.3764,27.9126,0.6608,21,120,2,49627.9126,47.6052
1995,1,1,-5.2822,-6.0688,29.4916,0.5285,28,71,2,49879.4916,251.579
1996,1,1,-8.2853,7.4691,26.7539,1.1867,10,317,2,49901.7539,22.2623
1996,1,1,-8.9779,4.2083,29.4165,1.1044,6,258,2,49904.4165,2.6626
2004,1,1,-8.7159,-3.5387,27.0882,0.2523,7,117,2,50102.0882,197.6717
2005,1,1,-9.5893,2.9987,28.9645,0.4256,2,236,2,50128.9645,26.8763
2005,1,1,-8.9916,-1.4557,30.66,1.2995,6,155,2,50130.66,1.6955
2007,1,1,-7.8061,2.0897,30.0655,0.8682,13,219,2,50180.0655,49.4055
2008,1,1,-8.9249,-1.3066,29.7778,0.1364,6,158,2,50204.7778,24.7123
2009,1,1,-5.2404,6.3653,30.4656,1.1386,28,297,2,50230.4656,25.6878
2010,1,1,-5.3156,0.9016,26.0029,1.5043,28,198,2,50251.0029,20.5373
2010,1,1,-5.4727,1.5452,26.0933,1.7182,27,209,2,50251.0933,0.0904
2012,1,1,-7.0851,-6.2509,26.3737,0.7358,17,68,2,50301.3737,50.2804
2014,1,1,-5.9571,7.3515,29.941,1.2313,24,315,2,50354.941,53.5673
2016,1,1,-7.0714,-0.7389,27.1005,0.3412,17,168,2,50402.1005,47.1595
2018,1,1,-7.5649,-3.6532,28.4981,1.1901,14,115,2,50453.4981,51.3976
2019,1,1,-5.6443,1.5885,30.8195,0.7072,26,210,2,50480.8195,27.3214
2021,1,1,-5.8815,-8.9025,27.6761,0.208,24,19,2,50527.6761,46.8566
2026,1,1,-6.4035,0.8217,27.1649,1.8408,21,196,2,50652.1649,124.4888
2046,1,1,-8.0968,4.5488,28.0143,0.5404,11,264,2,51153.0143,500.8494
2051,1,1,-5.6072,6.4669,29.9502,1.8808,26,299,2,51279.9502,126.9359
2058,1,1,-6.4831,7.3404,27.0639,1.6642,21,315,2,51452.0639,172.1137
2060,1,1,-9.3211,-8.435,29.8296,1.6846,4,28,2,51504.8296,52.7657
2073,1,1,-5.307,4.8081,26.5425,1.3193,28,269,2,51826.5425,321.7129
2084,1,1,-6.2063,1.7485,26.1088,0.3147,22,213,2,52101.1088,274.5663
2087,1,1,-6.2902,-6.5064,30.0837,0.937,22,63,2,52180.0837,78.9749
2097,1,1,-7.4461,4.1933,26.997,0.8667,15,258,2,52426.997,246.9133
2100,1,1,-5.393,-2.8409,28.0951,0.4157,27,130,2,52503.0951,76.0981
2101,1,1,-9.4702,-2.924,28.4109,1.7272,3,128,2,52528.4109,25.3158
2106,1,1,-8.7194,-7.0167,28.5064,0.2986,7,54,2,52653.5064,125.0955
2113,1,1,-5.3768,6.8318,26.9451,0.6227,28,306,2,52826.9451,173.4387
2113,1,1,-7.7399,5.5081,29.9673,0.2015,13,281,2,52829.9673,3.0222
2117,1,1,-7.2714,3.9672,27.7615,0.2934,16,253,2,52927.7615,97.7942
2117,1,1,-7.6342,5.7106,30.3504,0.9246,14,285,2,52930.3504,2.5889
2126,1,1,-5.8956,-3.3582,28.2022,0.5873,24,120,2,53153.2022,222.8518
2127,1,1,-6.1425,-9.3862,26.8882,0.2206,23,11,2,53176.8882,23.686
2127,1,1,-7.2186,0.0246,27.9723,0.2942,16,182,2,53177.9723,1.0841
2130,1,1,-7.4022,-6.9842,27.0497,0.6581,15,54,2,53252.0497,74.0774
2133,1,1,-7.6902,4.4198,26.185,1.4697,13,262,2,53326.185,74.1353
2135,1,1,-7.3705,0.4784,26.2082,0.7642,15,190,2,53376.2082,50.0232
2143,1,1,-7.3988,1.6905,26.8689,0.5064,15,212,2,53576.8689,200.6607
2145,1,1,-6.2831,-3.9821,27.9295,1.3559,22,109,2,53627.9295,51.0606
2152,1,1,-9.4531,-8.2817,26.5321,1.9861,3,31,2,53801.5321,173.6026
2152,1,1,-6.3165,-6.1889,29.3264,0.9248,22,69,2,53804.3264,2.7943
2155,1,1,-8.3447,4.5099,26.3147,1.7286,10,263,2,53876.3147,71.9883
2165,1,1,-8.6236,7.1033,28.6411,1.8957,8,310,2,54128.6411,252.3264
2169,1,1,-5.8974,-6.8849,26.0406,0.7149,24,56,2,54226.0406,97.3995
2174,1,1,-9.416,-0.5449,30.8335,1.2065,3,171,2,54355.8335,129.7929
2178,1,1,-9.4743,-0.3897,27.6929,1.9012,3,174,2,54452.6929,96.8594
2178,1,1,-7.6933,-8.2968,29.3753,1.9796,13,30,2,54454.3753,1.6824
2179,1,1,-9.2531,-0.7007,29.1502,0.9543,4,169,2,54479.1502,24.7749
2181,1,1,-6.6999,-4.1064,28.097,1.3464,20,107,2,54528.097,48.9468
2181,1,1,-7.6499,-8.3738,29.885,1.8041,14,29,2,54529.885,1.788
2184,1,1,-6.0717,6.3957,30.6942,0.7425,23,298,2,54605.6942,75.8092
2186,1,1,-6.2481,-9.9996,27.0542,1.7669,22,0,2,54652.0542,46.36
2189,1,1,-8.8594,-0.6781,27.9872,0.6375,6,169,2,54727.9872,75.933
2189,1,1,-7.6931,-0.0353,29.4529,1.5972,13,181,2,54729.4529,1.4657
2194,1,1,-5.7323,1.3322,29.348,1.3293,25,206,2,54854.348,124.8951
2206,1,1,-9.2691,4.4106,28.702,1.4701,4,262,2,55153.702,299.354
2207,1,1,-7.491,-1.376,30.126,0.9434,15,156,2,55180.126,26.424
2208,1,1,-8.5349,2.4094,27.9306,0.6318,8,225,2,55202.9306,22.8046
2209,1,1,-9.2789,4.8222,29.5454,1.2539,4,269,2,55229.5454,26.6148
2210,1,1,-7.2081,-0.5318,27.753,0.1265,16,172,2,55252.753,23.2076
2210,1,1,-8.3122,7.3977,29.2355,1.163,10,316,2,55254.2355,1.4825
2212,1,1,-7.521,-7.9333,27.2738,0.1659,15,37,2,55302.2738,48.0383
2222,1,1,-8.349,-5.7445,28.4544,1.7039,10,77,2,55553.4544,251.1806
2227,1,1,-8.192,-4.2067,27.4484,1.9164,10,105,2,55677.4484,123.994
2230,1,1,-6.8759,6.5842,29.8767,1.7239,18,301,2,55754.8767,77.4283
2234,1,1,-5.5124,-2.0189,30.7819,0.8032,27,145,2,55855.7819,100.9052
2236,1,1,-8.2561,-0.97,30.209,1.9812,10,164,2,55905.209,49.4271
2238,1,1,-7.5741,-5.8313,28.0363,0.4243,14,75,2,55953.0363,47.8273
2239,1,1,-6.1593,-2.7861,27.4726,1.9433,23,131,2,55977.4726,24.4363
2241,1,1,-5.4325,-0.4982,27.4121,0.4256,27,172,2,56027.4121,49.9395
2247,1,1,-6.8796,5.253,26.6117,0.465,18,277,2,56176.6117,149.1996
2251,1,1,-5.5794,1.282,27.6823,1.6167,26,205,2,56277.6823,101.0706
2256,1,1,-8.9514,-4.5287,26.1266,1.2313,6,99,2,56401.1266,123.4443
2257,1,1,-7.2861,-5.931,30.3357,1.7209,16,73,2,56430.3357,29.2091
2259,1,1,-8.6615,-3.2367,28.75,1.9197,8,122,2,56478.75,48.4143
2261,1,1,-7.874,-2.6766,28.3947,0.9453,12,133,2,56528.3947,49.6447
2262,1,1,-6.3436,-5.281,27.4823,0.4167,22,85,2,56552.4823,24.0876
2265,1,1,-8.8791,-3.987,29.0351,0.1278,6,109,2,56629.0351,76.5528
2267,1,1,-5.5591,6.6284,26.1298,0.4576,26,302,2,56676.1298,47.0947
2267,1,1,-6.8797,-1.0284,30.3916,0.8282,18,163,2,56680.3916,4.2618
2268,1,1,-6.9657,1.8302,27.3989,0.7304,18,215,2,56702.3989,22.0073
2270,1,1,-9.2072,-5.4108,29.7557,1.647,4,83,2,56754.7557,52.3568
2271,1,1,-7.5755,-4.4802,29.925,1.409,14,100,2,56779.925,25.1693
2272,1,1,-9.0197,5.1478,27.4695,1.5704,5,275,2,56802.4695,22.5445
2274,1,1,-7.6272,-3.18,28.8097,0.7143,14,124,2,56853.8097,51.3402
2275,1,1,-6.0866,-6.441,28.3967,0.9238,23,64,2,56878.3967,24.587
2276,1,1,-6.2851,6.4402,26.2703,0.8795,22,298,2,56901.2703,22.8736
2276,1,1,-7.2156,-9.0967,30.0921,0.2353,16,16,2,56905.0921,3.8218
2281,1,1,-7.4552,-1.1899,27.0392,0.9228,15,160,2,57027.0392,121.9471
2282,1,1,-5.9925,7.1929,30.9485,0.2982,24,312,2,57055.9485,28.9093
2283,1,1,-5.8891,-8.5983,26.787,1.1946,24,25,2,57076.787,20.8385
2285,1,1,-8.2321,2.2336,29.4765,0.5551,10,222,2,57129.4765,52.6895
2286,1,1,-6.8159,-5.9028,29.3984,1.5996,19,74,2,57154.3984,24.9219
2289,1,1,-6.0713,-6.9805,28.8308,0.4799,23,54,2,57228.8308,74.4324
2291,1,1,-7.2087,3.8958,27.4161,1.8287,16,252,2,57277.4161,48.5853
2291,1,1,-8.5763,-2.3414,30.4183,0.9993,8,139,2,57280.4183,3.0022
2295,1,1,-5.608,0.2409,29.8311,1.1881,26,186,2,57379.8311,99.4128
2298,1,1,-7.622,-6.577,27.4446,1.4931,14,62,2,57452.4446,72.6135
2299,1,1,-5.2762,-7.2927,30.7721,0.8357,28,49,2,57480.7721,28.3275
2303,1,1,-7.4939,-1.7904,30.4157,1.5227,15,149,2,57580.4157,99.6436
2306,1,1,-8.5073,-3.0131,27.9305,0.7378,9,127,2,57652.9305,72.5148
2306,1,1,-6.3429,-0.3467,30.0525,1.6391,22,175,2,57655.0525,2.122
2308,1,1,-9.43,6.5402,27.1707,1.5495,3,300,2,57702.1707,47.1182
2308,1,1,-9.3416,-4.2909,27.7998,0.6878,3,103,2,57702.7998,0.6291
2310,1,1,-7.4608,-2.2148,29.5715,1.006,15,141,2,57754.5715,51.7717
2313,1,1,-9.1426,3.6581,27.3422,1.9755,5,248,2,57827.3422,72.7707
2315,1,1,-5.2423,-7.7815,27.8,1.1382,28,40,2,57877.8,50.4578
2316,1,1,-9.2056,4.8809,26.3075,1.0869,4,270,2,57901.3075,23.5075
2317,1,1,-8.1678,5.0077,30.5644,0.4744,11,272,2,57930.5644,29.2569
2320,1,1,-6.8453,5.4047,27.6719,0.1594,19,280,2,58002.6719,72.1075
2324,1,1,-6.5911,-5.7091,30.6751,0.9489,20,78,2,58105.6751,103.0032
2326,1,1,-8.7454,4.9409,27.1878,0.3453,7,271,2,58152.1878,46.5127
2330,1,1,-7.3804,6.5669,28.8068,0.3265,15,301,2,58253.8068,101.619
2330,1,1,-8.8651,-8.2474,29.1406,0.8054,6,31,2,58254.1406,0.3338
2331,1,1,-6.9781,-9.9703,29.9889,0.7219,18,0,2,58279.9889,25.8483
2335,1,1,-5.4473,3.3372,26.1835,1.2168,27,242,2,58376.1835,96.1946
2337,1,1,-5.2374,-3.2954,29.9456,1.3861,28,121,2,58429.9456,53.7621
2346,1,1,-7.2026,-0.917,28.0655,1.763,16,165,2,58653.0655,223.1199
2347,1,1,-6.3989,-2.4378,30.3777,1.0725,21,137,2,58680.3777,27.3122
2348,1,1,-7.9467,-1.7112,30.4776,0.6492,12,150,2,58705.4776,25.0999
2349,1,1,-6.5852,3.0802,26.7856,0.6555,20,237,2,58726.7856,21.308
2357,1,1,-8.4285,6.2163,27.8273,0.1735,9,294,2,58927.8273,201.0417
2362,1,1,-5.6144,-4.9139,29.2668,1.8515,26,92,2,59054.2668,126.4395
2362,1,1,-7.5416,-5.4344,29.4533,1.8194,14,83,2,59054.4533,0.1865
2368,1,1,-8.0363,-9.8916,30.6306,1.8979,11,1,2,59205.6306,151.1773
2369,1,1,-8.6823,7.49,27.7333,1.9592,7,318,2,59227.7333,22.1027
2370,1,1,-9.1037,1.2769,26.6357,1.6707,5,205,2,59251.6357,23.9024
2374,1,1,-7.7301,-5.5286,27.3636,0.4194,13,81,2,59352.3636,100.7279
2380,1,1,-6.407,2.4776,26.5796,0.4203,21,226,2,59501.5796,149.216
2382,1,1,-8.0497,-6.6726,30.9775,1.9386,11,60,2,59555.9775,54.3979
2386,1,1,-9.328,4.9244,28.0977,1.3536,4,271,2,59653.0977,97.1202
2391,1,1,-9.3423,-1.8239,28.8654,1.695,3,148,2,59778.8654,125.7677
2393,1,1,-8.6276,-8.2543,27.0204,0.8281,8,31,2,59827.0204,48.155
2396,1,1,-8.6497,-2.9601,28.1317,1.32,8,127,2,59903.1317,76.1113
2397,1,1,-5.3578,-6.4284,28.6305,1.3692,28,64,2,59928.6305,25.4988
2405,1,1,-6.5096,2.2176,30.604,1.1247,21,222,2,60130.604,201.9735
2412,1,1,-6.1247,6.7489,27.0731,1.8236,23,304,2,60302.0731,171.4691
2412,1,1,-9.2616,0.8765,29.8028,0.3152,4,197,2,60304.8028,2.7297
2414,1,1,-7.6219,5.7254,28.5373,1.1278,14,285,2,60353.5373,48.7345
2417,1,1,-7.0769,5.1591,28.9336,0.4244,17,275,2,60428.9336,75.3963
2418,1,1,-5.4577,-7.1146,29.1052,0.3738,27,52,2,60454.1052,25.1716
2421,1,1,-5.9976,-6.3661,26.7598,1.7841,24,66,2,60526.7598,72.6546
2422,1,1,-6.7678,-0.6526,27.8972,1.059,19,169,2,60552.8972,26.1374
2422,1,1,-8.4988,0.9004,29.8066,1.0413,9,198,2,60554.8066,1.9094
2423,1,1,-8.1845,-3.692,29.3489,1.7041,11,114,2,60579.3489,24.5423
2424,1,1,-7.0034,6.9488,26.0357,0.2786,18,308,2,60601.0357,21.6868
2429,1,1,-6.2067,6.8305,26.279,0.1784,22,306,2,60726.279,125.2433
2429,1,1,-5.6937,4.4917,27.2664,0.9311,26,263,2,60727.2664,0.9874
2432,1,1,-6.0182,4.7825,29.9151,0.2207,24,268,2,60804.9151,77.6487
2434,1,1,-9.4618,4.0959,29.0523,1.0522,3,256,2,60854.0523,49.1372
2437,1,1,-5.6311,-2.7101,29.0074,1.583,26,132,2,60929.0074,74.9551
2440,1,1,-6.3697,-0.1389,30.6463,1.383,22,179,2,61005.6463,76.6389
2447,1,1,-6.3268,3.5876,28.6315,0.2607,22,247,2,61178.6315,172.9852
2452,1,1,-6.5122,-0.3246,29.2943,1.031,21,175,2,61304.2943,125.6628
2463,1,1,-8.86,4.1732,27.1099,1.2393,6,257,2,61577.1099,272.8156
2464,1,1,-6.4375,0.3081,28.5085,1.7742,21,187,2,61603.5085,26.3986
2468,1,1,-5.232,-3.7317,28.453,0.1542,28,113,2,61703.453,99.9445
2471,1,1,-8.7094,-5.3201,28.6318,0.2931,7,85,2,61778.6318,75.1788
2474,1,1,-6.5977,1.4426,29.7187,0.7392,20,208,2,61854.7187,76.0869
2477,1,1,-6.4108,-0.1291,29.9607,1.5759,21,179,2,61929.9607,75.242
2478,1,1,-7.328,-7.8007,26.5214,1.4467,16,39,2,61951.5214,21.5607
2483,1,1,-8.7777,5.6948,30.1645,1.6564,7,285,2,62080.1645,128.6431
2483,1,1,-7.4546,-9.7545,30.9778,0.6076,15,4,2,62080.9778,0.8133
2486,1,1,-7.7665,-2.1673,27.7192,0.4491,13,142,2,62152.7192,71.7414
2489,1,1,-9.3758,-9.7906,29.7092,0.9482,3,3,2,62229.7092,76.99
2490,1,1,-9.4161,6.4336,30.522,1.0941,3,298,2,62255.522,25.8128
2491,1,1,-7.5276,-7.1408,30.3406,1.606,14,51,2,62280.3406,24.8186
2502,1,1,-8.5738,-1.1493,26.6568,0.7684,8,160,2,62551.6568,271.3162
2506,1,1,-5.9273,3.809,27.8811,1.7805,24,251,2,62652.8811,101.2243
2506,1,1,-8.8613,4.8781,28.5515,0.3357,6,270,2,62653.5515,0.6704
2507,1,1,-7.6311,1.2372,29.0238,1.1467,14,204,2,62679.0238,25.4723
2511,1,1,-7.6918,-7.5698,27.6186,1.3358,13,44,2,62777.6186,98.5948
2513,1,1,-5.7525,-9.7689,28.1268,1.953,25,4,2,62828.1268,50.5082
2514,1,1,-8.3539,-4.9326,29.4908,0.5755,9,92,2,62854.4908,26.364
2516,1,1,-9.1632,0.2168,28.1153,0.3829,5,185,2,62903.1153,48.6245
2516,1,1,-5.74,3.4137,30.6002,0.7627,25,243,2,62905.6002,2.4849
2517,1,1,-8.618,0.9537,29.5117,1.5475,8,199,2,62929.5117,23.9115
2517,1,1,-6.9748,-2.7244,29.6343,0.9132,18,132,2,62929.6343,0.1226
2520,1,1,-8.357,-9.7257,30.791,0.6387,9,4,2,63005.791,76.1567
2521,1,1,-9.3506,-6.6156,29.0336,0.7191,3,61,2,63029.0336,23.2426
2526,1,1,-8.7236,-1.8993,28.1331,0.9913,7,147,2,63153.1331,124.0995
2527,1,1,-6.4974,-6.4902,27.6191,0.576,21,63,2,63177.6191,24.486
2528,1,1,-9.2888,1.9927,26.3945,0.6555,4,218,2,63201.3945,23.7754
2529,1,1,-5.4909,3.4494,27.6333,1.7681,27,244,2,63227.6333,26.2388
2531,1,1,-6.7699,-2.6959,29.8512,0.6986,19,132,2,63279.8512,52.2179
2538,1,1,-7.6976,2.5068,29.1435,0.3179,13,227,2,63454.1435,174.2923
2540,1,1,-5.3495,-2.0639,26.6872,1.3947,28,144,2,63501.6872,47.5437
2546,1,1,-8.2897,0.9274,26.4327,0.1216,10,198,2,63651.4327,149.7455
2546,1,1,-9.1025,-7.8706,27.764,1.3241,5,38,2,63652.764,1.3313
2547,1,1,-8.7478,3.7521,30.1673,0.247,7,250,2,63680.1673,27.4033
2552,1,1,-9.4889,-4.5709,27.5296,0.7416,3,98,2,63802.5296,122.3623
2555,1,1,-7.8086,6.6334,30.6358,0.3265,13,302,2,63880.6358,78.1062
2556,1,1,-6.887,6.5141,28.8876,1.5999,18,300,2,63903.8876,23.2518
2557,1,1,-8.0795,-8.9044,27.6335,1.0358,11,19,2,63927.6335,23.7459
2561,1,1,-6.4659,-4.2578,30.0798,0.6682,21,104,2,64030.0798,102.4463
2562,1,1,-7.7173,-2.1356,26.3901,0.9841,13,142,2,64051.3901,21.3103
2562,1,1,-9.4912,3.6588,26.3917,0.3551,3,248,2,64051.3917,0.0016
2565,1,1,-6.4654,1.019,29.691,1.4062,21,200,2,64129.691,78.2993
2571,1,1,-7.9042,-9.1427,26.1959,1.4592,12,15,2,64276.1959,146.5049
2571,1,1,-8.8264,0.544,29.6926,1.9693,7,191,2,64279.6926,3.4967
2572,1,1,-6.1664,-6.2858,28.1338,0.6816,23,67,2,64303.1338,23.4412
2574,1,1,-8.4143,-2.3814,28.0331,0.455,9,138,2,64353.0331,49.8993
2575,1,1,-6.7531,-2.1649,28.4575,0.8223,19,142,2,64378.4575,25.4244
2581,1,1,-8.1684,-8.7873,27.8908,1.7938,11,22,2,64527.8908,149.4333
2583,1,1,-8.3068,6.2681,28.0297,0.4291,10,295,2,64578.0297,50.1389
2587,1,1,-5.5254,-7.7883,27.3972,0.3006,27,40,2,64677.3972,99.3675
2596,1,1,-9.5221,5.5629,26.2685,1.5081,2,282,2,64901.2685,223.8713
2601,1,1,-7.7062,-0.4159,29.0399,1.306,13,174,2,65029.0399,127.7714
2602,1,1,-8.0887,-4.3316,27.4088,0.3107,11,103,2,65052.4088,23.3689
2603,1,1,-8.9902,-7.0596,28.4398,0.3158,6,53,2,65078.4398,26.031
2608,1,1,-6.263,-5.2361,26.314,1.0401,22,86,2,65201.314,122.8742
2609,1,1,-6.4148,-6.364,27.3724,1.4476,21,66,2,65227.3724,26.0584
2610,1,1,-8.7843,-0.9581,26.0671,1.5594,7,164,2,65251.0671,23.6947
2612,1,1,-9.0489,2.7901,27.1171,1.6602,5,232,2,65302.1171,51.05
2612,1,1,-8.1138,-2.4427,29.7124,0.3267,11,137,2,65304.7124,2.5953
2621,1,1,-5.8449,-7.2797,29.1136,1.292,25,49,2,65529.1136,224.4012
2625,1,1,-7.0193,3.7224,28.0296,0.7505,18,249,2,65628.0296,98.916
2626,1,1,-7.7608,-2.2375,30.1341,0.3533,13,141,2,65655.1341,27.1045
2628,1,1,-7.4325,-1.4653,30.8175,0.8941,15,155,2,65705.8175,50.6834
2629,1,1,-6.8286,-8.5374,29.3945,0.2271,19,26,2,65729.3945,23.577
2631,1,1,-8.6517,-1.261,27.2441,0.1297,8,158,2,65777.2441,47.8496
2631,1,1,-9.3737,-7.6331,28.4889,1.6942,3,43,2,65778.4889,1.2448
2631,1,1,-6.0803,4.7705,28.4898,0.5418,23,268,2,65778.4898,0.0009
2634,1,1,-9.1743,-8.7137,27.382,0.56,5,23,2,65852.382,73.8922
2634,1,1,-8.6038,-0.7299,29.7706,1.7746,8,168,2,65854.7706,2.3886
2636,1,1,-6.8177,4.7281,27.1182,1.2717,19,267,2,65902.1182,47.3476
2637,1,1,-6.7598,-3.3353,29.2073,1.2621,19,121,2,65929.2073,27.0891
2645,1,1,-7.8829,2.7689,28.3658,0.436,12,232,2,66128.3658,199.1585
2646,1,1,-8.4366,-2.3996,26.7931,0.4854,9,138,2,66151.7931,23.4273
2646,1,1,-7.9649,-6.5507,29.3611,0.5891,12,62,2,66154.3611,2.568
2657,1,1,-5.6482,3.3572,28.5581,1.4917,26,242,2,66428.5581,274.197
2664,1,1,-9.599,-9.2675,27.4248,1.9708,2,13,2,66602.4248,173.8667
2667,1,1,-7.7184,-8.1934,26.1877,0.9699,13,32,2,66676.1877,73.7629
2667,1,1,-6.3294,-8.366,30.0314,0.8081,22,29,2,66680.0314,3.8437
2671,1,1,-6.5891,2.1316,26.2756,0.4348,20,220,2,66776.2756,96.2442
2671,1,1,-9.512,3.5269,29.2877,1.9837,2,245,2,66779.2877,3.0121
2678,1,1,-6.4018,-1.4435,26.3133,0.5066,21,155,2,66951.3133,172.0256
2686,1,1,-6.5708,-8.0987,28.5503,0.9747,20,34,2,67153.5503,202.237
2687,1,1,-5.5941,-8.4304,27.3218,0.6128,26,28,2,67177.3218,23.7715
2688,1,1,-6.8878,4.0293,26.0835,0.7074,18,255,2,67201.0835,23.7617
2690,1,1,-5.8773,-0.5434,26.1807,0.4351,24,171,2,67251.1807,50.0972
2692,1,1,-9.086,-6.0164,27.7893,0.2647,5,72,2,67302.7893,51.6086
2700,1,1,-5.7589,1.4449,28.1965,0.3873,25,208,2,67503.1965,200.4072
2704,1,1,-7.3131,-4.4472,30.201,1.337,16,100,2,67605.201,102.0045
2707,1,1,-8.7373,-7.5167,30.0604,0.9327,7,45,2,67680.0604,74.8594
2708,1,1,-6.2891,-7.9223,28.9504,1.7582,22,37,2,67703.9504,23.89
2711,1,1,-6.2254,-9.7951,28.7218,1.9878,22,3,2,67778.7218,74.7714
2718,1,1,-8.0694,-7.2168,26.496,1.6155,11,50,2,67951.496,172.7742
2718,1,1,-9.2905,4.0882,29.5067,1.688,4,256,2,67954.5067,3.0107
2718,1,1,-9.1363,3.4573,30.187,1.345,5,244,2,67955.187,0.6803
2720,1,1,-9.4047,-8.6708,28.8161,1.5695,3,24,2,68003.8161,48.6291
2730,1,1,-8.6917,5.6948,29.2528,1.4217,7,285,2,68254.2528,250.4367
2736,1,1,-6.2237,3.4858,28.9307,1.1085,22,245,2,68403.9307,149.6779
2737,1,1,-8.5731,3.3818,28.9894,0.9607,8,243,2,68428.9894,25.0587
2739,1,1,-7.9955,-3.6489,29.8607,1.2799,12,115,2,68479.8607,50.8713
2741,1,1,-8.033,6.8743,26.5218,1.903,11,306,2,68526.5218,46.6611
2742,1,1,-8.056,-2.2979,28.8034,1.2558,11,140,2,68553.8034,27.2816
2743,1,1,-9.3361,-7.6202,26.3423,1.0853,4,43,2,68576.3423,22.5389
2745,1,1,-8.5748,-6.6599,28.881,0.7001,8,60,2,68628.881,52.5387
2746,1,1,-9.0646,3.8319,26.1294,0.7486,5,251,2,68651.1294,22.2484
2747,1,1,-7.1515,-1.7536,29.873,1.3812,17,149,2,68679.873,28.7436
2750,1,1,-9.4213,7.3736,28.5623,1.8733,3,315,2,68753.5623,73.6893
2752,1,1,-7.5693,1.5804,27.2653,1.0679,14,210,2,68802.2653,48.703
2752,1,1,-5.7093,4.5826,28.2694,1.5133,26,265,2,68803.2694,1.0041
2754,1,1,-8.4581,-4.3096,29.7156,1.8859,9,103,2,68854.7156,51.4462
2763,1,1,-7.777,3.0675,30.1315,0.4241,13,237,2,69080.1315,225.4159
2764,1,1,-9.0627,2.3434,26.0415,1.7617,5,224,2,69101.0415,20.91
2764,1,1,-7.833,-8.7973,29.8325,1.8269,13,21,2,69104.8325,3.791
2766,1,1,-6.0516,4.6205,28.507,0.2991,23,265,2,69153.507,48.6745
2767,1,1,-8.8746,-7.0403,28.4204,1.1044,6,53,2,69178.4204,24.9134
2768,1,1,-6.6146,-0.0627,27.8278,0.4249,20,180,2,69202.8278,24.4074
2769,1,1,-8.3536,-2.1112,28.3073,0.8722,9,143,2,69228.3073,25.4795
2774,1,1,-5.3919,4.4817,29.3707,0.2723,27,263,2,69354.3707,126.0634
2782,1,1,-8.0225,6.081,26.6101,1.3835,11,292,2,69551.6101,197.2394
2782,1,1,-9.2068,-5.2469,30.2024,1.4864,4,86,2,69555.2024,3.5923
2784,1,1,-5.6917,-0.5877,28.0723,0.8202,26,171,2,69603.0723,47.8699
2788,1,1,-7.2158,-4.8771,27.1802,0.3897,16,93,2,69702.1802,99.1079
2791,1,1,-9.025,6.4979,29.0115,0.406,5,299,2,69779.0115,76.8313
2793,1,1,-5.8335,-4.8923,29.0313,1.4836,25,92,2,69829.0313,50.0198
2794,1,1,-8.7847,-5.6569,27.5543,1.8508,7,78,2,69852.5543,23.523
2794,1,1,-5.6455,-0.3097,30.9639,0.7877,26,176,2,69855.9639,3.4096
2796,1,1,-7.2821,-4.4988,28.5926,1.3196,16,100,2,69903.5926,47.6287
2797,1,1,-7.1461,-4.1574,28.8885,1.6243,17,106,2,69928.8885,25.2959
2798,1,1,-8.1213,5.3753,27.0282,0.212,11,279,2,69952.0282,23.1397
2799,1,1,-5.8195,6.0661,30.6916,1.347,25,292,2,69980.6916,28.6634
2802,1,1,-8.0239,0.3934,28.9663,1.3047,11,188,2,70053.9663,73.2747
2806,1,1,-5.6836,-7.587,29.4268,1.6999,26,43,2,70154.4268,100.4605
2807,1,1,-9.4128,-8.9663,27.1604,1.5876,3,18,2,70177.1604,22.7336
2807,1,1,-7.7771,-1.6996,30.5171,1.6207,13,150,2,70180.5171,3.3567
2813,1,1,-7.648,-1.4795,27.2078,0.8793,14,154,2,70327.2078,146.6907
2815,1,1,-7.5288,-3.8461,27.569,0.7822,14,111,2,70377.569,50.3612
2819,1,1,-7.6569,-1.6137,29.8026,0.5671,14,152,2,70479.8026,102.2336
2820,1,1,-8.0394,-9.1455,29.7895,0.3052,11,15,2,70504.7895,24.9869
2823,1,1,-5.3885,-8.0304,28.129,0.9725,27,35,2,70578.129,73.3395
2826,1,1,-7.0811,-6.4074,26.1931,0.9543,17,65,2,70651.1931,73.0641
2828,1,1,-8.987,-0.7667,29.7475,1.2455,6,167,2,70704.7475,53.5544
2835,1,1,-6.3146,1.5536,26.2034,0.955,22,210,2,70876.2034,171.4559
2849,1,1,-9.0736,0.9288,26.1773,1.3846,5,198,2,71226.1773,349.9739
2851,1,1,-9.4205,1.9259,26.5358,0.1329,3,216,2,71276.5358,50.3585
2855,1,1,-8.3367,-7.6007,29.692,0.6987,10,43,2,71379.692,103.1562
2856,1,1,-9.4106,-0.1313,26.8692,0.3658,3,179,2,71401.8692,22.1772
2859,1,1,-7.4724,-1.1516,30.4859,0.4116,15,160,2,71480.4859,78.6167
2860,1,1,-5.2886,1.4713,29.7939,0.3122,28,208,2,71504.7939,24.308
2862,1,1,-6.0984,3.6516,30.8904,0.9729,23,248,2,71555.8904,51.0965
2866,1,1,-7.7788,-9.5848,28.5555,1.9077,13,7,2,71653.5555,97.6651
2868,1,1,-9.1169,-8.5131,27.1118,1.9757,5,27,2,71702.1118,48.5563
2869,1,1,-6.3622,6.0716,28.4192,0.4057,22,292,2,71728.4192,26.3074
2870,1,1,-9.5496,1.289,27.1075,0.7729,2,205,2,71752.1075,23.6883
2871,1,1,-8.5129,-0.5536,28.7663,1.5978,9,171,2,71778.7663,26.6588
2871,1,1,-9.5583,4.2614,30.8556,0.6037,2,259,2,71780.8556,2.0893
2874,1,1,-6.5387,2.947,27.4258,1.4663,20,235,2,71852.4258,71.5702
2879,1,1,-8.2141,-4.6793,26.1152,0.7894,10,96,2,71976.1152,123.6894
2879,1,1,-8.1684,-2.0129,27.5459,1.9644,11,145,2,71977.5459,1.4307
2883,1,1,-5.9535,-2.6772,27.0672,0.3916,24,133,2,72077.0672,99.5213
2885,1,1,-6.7332,-8.8953,27.5074,0.7563,19,20,2,72127.5074,50.4402
2885,1,1,-7.7584,5.5122,30.6191,0.1769,13,282,2,72130.6191,3.1117
2887,1,1,-5.456,-3.7106,30.8932,1.1014,27,114,2,72180.8932,50.2741
2889,1,1,-7.2555,4.1021,27.3234,0.6557,16,256,2,72227.3234,46.4302
2896,1,1,-8.1297,-8.9409,26.4206,1.4163,11,19,2,72401.4206,174.0972
2899,1,1,-8.4147,-2.4581,27.5655,1.5344,9,137,2,72477.5655,76.1449
2899,1,1,-8.3346,-4.4627,29.3473,1.6224,10,100,2,72479.3473,1.7818
2900,1,1,-6.1949,-2.3826,29.1409,0.4394,23,138,2,72504.1409,24.7936
2901,1,1,-5.592,0.609,29.6971,0.3244,26,192,2,72529.6971,25.5562
2907,1,1,-7.1885,5.8216,26.4622,0.7295,17,287,2,72676.4622,146.7651
2912,1,1,-7.4525,-9.2602,26.2576,0.4189,15,13,2,72801.2576,124.7954
2912,1,1,-9.2646,0.093,30.7299,0.5554,4,183,2,72805.7299,4.4723
2922,1,1,-8.7392,4.237,29.0544,1.5964,7,258,2,73054.0544,248.3245
2933,1,1,-5.3934,-4.5058,26.6982,0.3502,27,99,2,73326.6982,272.6438
2935,1,1,-9.0209,6.7215,26.8062,0.7425,5,304,2,73376.8062,50.108
2936,1,1,-7.1027,0.1222,27.7781,1.9424,17,184,2,73402.7781,25.9719
2939,1,1,-7.5213,2.7563,27.2318,1.5884,15,231,2,73477.2318,74.4537
2939,1,1,-6.2065,-5.4106,30.705,1.0755,22,83,2,73480.705,3.4732
2943,1,1,-7.1397,-1.0959,30.1697,0.3619,17,161,2,73580.1697,99.4647
2944,1,1,-5.4043,-5.3045,28.0023,1.4093,27,85,2,73603.0023,22.8326
2944,1,1,-6.5937,0.0573,29.1034,0.161,20,182,2,73604.1034,1.1011
2950,1,1,-5.7949,-9.9634,28.313,1.2842,25,0,2,73753.313,149.2096
2951,1,1,-5.3445,-1.7039,29.6987,0.711,28,150,2,73779.6987,26.3857
2955,1,1,-8.6633,-4.7001,30.6339,1.0388,8,96,2,73880.6339,100.9352
2957,1,1,-7.2153,0.0687,27.9011,1.8606,16,183,2,73927.9011,47.2672
2957,1,1,-6.5966,2.1745,30.433,0.79,20,221,2,73930.433,2.5319
2960,1,1,-9.5987,-0.4724,26.5907,0.8463,2,173,2,74001.5907,71.1577
2960,1,1,-8.4773,-8.0331,28.7463,0.1666,9,35,2,74003.7463,2.1556
2962,1,1,-6.7505,-3.6857,29.5774,0.8991,19,114,2,74054.5774,50.8311
2964,1,1,-8.189,-8.9969,29.7396,1.7752,10,18,2,74104.7396,50.1622
2966,1,1,-6.6258,0.4609,30.2157,1.3197,20,190,2,74155.2157,50.4761
2973,1,1,-9.427,-9.2382,28.9254,0.9251,3,13,2,74328.9254,173.7097
2979,1,1,-5.4844,0.1612,30.7604,1.0473,27,184,2,74480.7604,151.835
2981,1,1,-7.7673,-1.8697,30.8626,1.7136,13,147,2,74530.8626,50.1022
2983,1,1,-8.4002,-9.9195,26.0348,1.7175,9,1,2,74576.0348,45.1722
2995,1,1,-5.241,2.2571,29.8813,0.7863,28,222,2,74879.8813,303.8465
2997,1,1,-8.8993,6.9711,27.3292,0.1579,6,308,2,74927.3292,47.4479
3000,1,1,-6.2194,-9.0559,26.1253,1.2569,22,17,2,75001.1253,73.7961
